build/verilate/Testbench.vcd
$version Generated by VerilatedVcd $end
$timescale 10ps $end
 $scope module $rootio $end
 $upscope $end
 $scope module Conv $end
  $var wire 32 (" WIDTH [31:0] $end
  $var wire 32 3" LEN [31:0] $end
 $upscope $end
 $scope module Testbench $end
  $var wire 1 Z! clk $end
  $var wire 1 # rst $end
  $var wire 64 $ in_data [63:0] $end
  $scope module kernel $end
   $var wire 64 & data[0] [63:0] $end
   $var wire 64 ( data[1] [63:0] $end
   $var wire 64 * data[2] [63:0] $end
   $var wire 64 , data[3] [63:0] $end
  $upscope $end
  $var wire 1 . in_valid $end
  $var wire 1 } in_ready $end
  $var wire 128 ~ result [127:0] $end
  $var wire 1 $! out_valid $end
  $var wire 1 [! out_ready $end
  $var wire 32 / i [31:0] $end
  $var wire 32 0 j [31:0] $end
  $var wire 32 1 seed [31:0] $end
  $var wire 1 : error $end
  $scope module conv_unit $end
   $var wire 1 Z! clk $end
   $var wire 1 # rst $end
   $var wire 64 $ in_data [63:0] $end
   $scope module kernel $end
    $var wire 64 & data[0] [63:0] $end
    $var wire 64 ( data[1] [63:0] $end
    $var wire 64 * data[2] [63:0] $end
    $var wire 64 , data[3] [63:0] $end
   $upscope $end
   $var wire 1 . in_valid $end
   $var wire 1 } in_ready $end
   $var wire 128 ~ result [127:0] $end
   $var wire 1 $! out_valid $end
   $var wire 1 [! out_ready $end
   $scope module shifted_data $end
    $var wire 64 %! data[0] [63:0] $end
    $var wire 64 '! data[1] [63:0] $end
    $var wire 64 )! data[2] [63:0] $end
    $var wire 64 +! data[3] [63:0] $end
   $upscope $end
   $var wire 1 -! temp_valid $end
   $var wire 1 .! temp_ready $end
   $scope module conv $end
    $var wire 1 Z! clk $end
    $var wire 1 # rst $end
    $scope module kernel $end
     $var wire 64 & data[0] [63:0] $end
     $var wire 64 ( data[1] [63:0] $end
     $var wire 64 * data[2] [63:0] $end
     $var wire 64 , data[3] [63:0] $end
    $upscope $end
    $scope module data $end
     $var wire 64 %! data[0] [63:0] $end
     $var wire 64 '! data[1] [63:0] $end
     $var wire 64 )! data[2] [63:0] $end
     $var wire 64 +! data[3] [63:0] $end
    $upscope $end
    $var wire 1 -! in_valid $end
    $var wire 1 .! in_ready $end
    $var wire 128 ~ result [127:0] $end
    $var wire 1 $! out_valid $end
    $var wire 1 [! out_ready $end
    $var wire 32 \! VECTOR_WIDTH [31:0] $end
    $scope module vector_stage1[0] $end
     $var wire 128 B! data [127:0] $end
     $var wire 1 F! valid $end
    $upscope $end
    $scope module vector_stage1[1] $end
     $var wire 128 G! data [127:0] $end
     $var wire 1 K! valid $end
    $upscope $end
    $scope module vector_stage1[2] $end
     $var wire 128 L! data [127:0] $end
     $var wire 1 P! valid $end
    $upscope $end
    $scope module vector_stage1[3] $end
     $var wire 128 Q! data [127:0] $end
     $var wire 1 U! valid $end
    $upscope $end
    $scope module vector_stage2 $end
     $var wire 128 ~ data [127:0] $end
     $var wire 1 /! valid $end
    $upscope $end
    $var wire 1 0! mul_start $end
    $var wire 2 1! state_reg [1:0] $end
    $scope module temp_ker $end
     $var wire 64 ]! data[0] [63:0] $end
     $var wire 64 _! data[1] [63:0] $end
     $var wire 64 a! data[2] [63:0] $end
     $var wire 64 c! data[3] [63:0] $end
    $upscope $end
    $scope module temp_dat $end
     $var wire 64 e! data[0] [63:0] $end
     $var wire 64 g! data[1] [63:0] $end
     $var wire 64 i! data[2] [63:0] $end
     $var wire 64 k! data[3] [63:0] $end
    $upscope $end
    $var wire 128 m! temp_result[0] [127:0] $end
    $var wire 128 q! temp_result[1] [127:0] $end
    $var wire 128 u! temp_result[2] [127:0] $end
    $var wire 128 y! temp_result[3] [127:0] $end
    $var wire 128 }! temp_result[4] [127:0] $end
    $var wire 1 #" temp_finish[0] $end
    $var wire 1 $" temp_finish[1] $end
    $var wire 1 %" temp_finish[2] $end
    $var wire 1 &" temp_finish[3] $end
    $var wire 1 '" temp_finish[4] $end
    $scope module mul_gen[0] $end
     $scope module mul $end
      $var wire 32 (" LEN [31:0] $end
      $var wire 1 Z! clk $end
      $var wire 1 # rst $end
      $var wire 64 2 multiplicand [63:0] $end
      $var wire 64 2! multiplier [63:0] $end
      $var wire 1 0! start $end
      $var wire 128 ; product [127:0] $end
      $var wire 1 ? finish $end
      $var wire 32 \! PRODUCT_LEN [31:0] $end
      $var wire 64 @ multiplicand_reg [63:0] $end
      $var wire 128 ; product_reg [127:0] $end
      $var wire 32 )" CNT_LEN [31:0] $end
      $var wire 32 *" CNT_NUM [31:0] $end
      $var wire 2 4! fsm_state_reg [1:0] $end
      $var wire 6 V! work_cnt [5:0] $end
      $var wire 1 ? finish_reg $end
      $var wire 65 B add_result [64:0] $end
     $upscope $end
    $upscope $end
    $scope module mul_gen[1] $end
     $scope module mul $end
      $var wire 32 (" LEN [31:0] $end
      $var wire 1 Z! clk $end
      $var wire 1 # rst $end
      $var wire 64 4 multiplicand [63:0] $end
      $var wire 64 5! multiplier [63:0] $end
      $var wire 1 0! start $end
      $var wire 128 E product [127:0] $end
      $var wire 1 I finish $end
      $var wire 32 \! PRODUCT_LEN [31:0] $end
      $var wire 64 J multiplicand_reg [63:0] $end
      $var wire 128 E product_reg [127:0] $end
      $var wire 32 )" CNT_LEN [31:0] $end
      $var wire 32 *" CNT_NUM [31:0] $end
      $var wire 2 7! fsm_state_reg [1:0] $end
      $var wire 6 W! work_cnt [5:0] $end
      $var wire 1 I finish_reg $end
      $var wire 65 L add_result [64:0] $end
     $upscope $end
    $upscope $end
    $scope module mul_gen[2] $end
     $scope module mul $end
      $var wire 32 (" LEN [31:0] $end
      $var wire 1 Z! clk $end
      $var wire 1 # rst $end
      $var wire 64 6 multiplicand [63:0] $end
      $var wire 64 8! multiplier [63:0] $end
      $var wire 1 0! start $end
      $var wire 128 O product [127:0] $end
      $var wire 1 S finish $end
      $var wire 32 \! PRODUCT_LEN [31:0] $end
      $var wire 64 T multiplicand_reg [63:0] $end
      $var wire 128 O product_reg [127:0] $end
      $var wire 32 )" CNT_LEN [31:0] $end
      $var wire 32 *" CNT_NUM [31:0] $end
      $var wire 2 :! fsm_state_reg [1:0] $end
      $var wire 6 X! work_cnt [5:0] $end
      $var wire 1 S finish_reg $end
      $var wire 65 V add_result [64:0] $end
     $upscope $end
    $upscope $end
    $scope module mul_gen[3] $end
     $scope module mul $end
      $var wire 32 (" LEN [31:0] $end
      $var wire 1 Z! clk $end
      $var wire 1 # rst $end
      $var wire 64 8 multiplicand [63:0] $end
      $var wire 64 ;! multiplier [63:0] $end
      $var wire 1 0! start $end
      $var wire 128 Y product [127:0] $end
      $var wire 1 ] finish $end
      $var wire 32 \! PRODUCT_LEN [31:0] $end
      $var wire 64 ^ multiplicand_reg [63:0] $end
      $var wire 128 Y product_reg [127:0] $end
      $var wire 32 )" CNT_LEN [31:0] $end
      $var wire 32 *" CNT_NUM [31:0] $end
      $var wire 2 =! fsm_state_reg [1:0] $end
      $var wire 6 Y! work_cnt [5:0] $end
      $var wire 1 ] finish_reg $end
      $var wire 65 ` add_result [64:0] $end
     $upscope $end
    $upscope $end
    $scope module unnamedblk1 $end
     $var wire 32 >! j [31:0] $end
    $upscope $end
    $scope module unnamedblk2 $end
     $var wire 32 ?! m [31:0] $end
    $upscope $end
   $upscope $end
   $scope module shift $end
    $var wire 1 Z! clk $end
    $var wire 1 # rst $end
    $var wire 64 $ in_data [63:0] $end
    $var wire 1 . in_valid $end
    $var wire 1 } in_ready $end
    $scope module data $end
     $var wire 64 %! data[0] [63:0] $end
     $var wire 64 '! data[1] [63:0] $end
     $var wire 64 )! data[2] [63:0] $end
     $var wire 64 +! data[3] [63:0] $end
    $upscope $end
    $var wire 1 -! out_valid $end
    $var wire 1 .! out_ready $end
    $var wire 1 @! state_reg $end
    $var wire 64 +" data_reg[0] [63:0] $end
    $var wire 64 -" data_reg[1] [63:0] $end
    $var wire 64 /" data_reg[2] [63:0] $end
    $var wire 64 1" data_reg[3] [63:0] $end
    $var wire 32 A! i [31:0] $end
   $upscope $end
  $upscope $end
  $scope module judge $end
   $var wire 1 Z! clk $end
   $var wire 1 # rst $end
   $var wire 64 $ in_data [63:0] $end
   $scope module kernel $end
    $var wire 64 & data[0] [63:0] $end
    $var wire 64 ( data[1] [63:0] $end
    $var wire 64 * data[2] [63:0] $end
    $var wire 64 , data[3] [63:0] $end
   $upscope $end
   $var wire 1 . in_valid $end
   $var wire 1 } in_ready $end
   $var wire 128 ~ result [127:0] $end
   $var wire 1 $! out_valid $end
   $var wire 1 [! out_ready $end
   $var wire 1 : error $end
   $var wire 1 c request $end
   $var wire 128 d mid[0] [127:0] $end
   $var wire 128 h mid[1] [127:0] $end
   $var wire 128 l mid[2] [127:0] $end
   $var wire 128 p mid[3] [127:0] $end
   $var wire 128 t sum [127:0] $end
   $var wire 128 x simulate_result [127:0] $end
   $var wire 32 | i [31:0] $end
  $upscope $end
 $upscope $end
$enddefinitions $end


#0
1#
b0000000000000000000000000000000000000000000000000000000000000000 $
b0000000000000000000000000000000000000000000000000000000000000000 &
b0000000000000000000000000000000000000000000000000000000000000000 (
b0000000000000000000000000000000000000000000000000000000000000000 *
b0000000000000000000000000000000000000000000000000000000000000000 ,
0.
b00000000000000000000000000000000 /
b00000000000000000000000000000000 0
b00000000000000000000000000000000 1
b0000000000000000000000000000000000000000000000000000000000000000 2
b0000000000000000000000000000000000000000000000000000000000000000 4
b0000000000000000000000000000000000000000000000000000000000000000 6
b0000000000000000000000000000000000000000000000000000000000000000 8
0:
b00000000000000000000000000000000000000000000000000000000000000000000000000000000000000000000000000000000000000000000000000000000 ;
0?
b0000000000000000000000000000000000000000000000000000000000000000 @
b00000000000000000000000000000000000000000000000000000000000000000 B
b00000000000000000000000000000000000000000000000000000000000000000000000000000000000000000000000000000000000000000000000000000000 E
0I
b0000000000000000000000000000000000000000000000000000000000000000 J
b00000000000000000000000000000000000000000000000000000000000000000 L
b00000000000000000000000000000000000000000000000000000000000000000000000000000000000000000000000000000000000000000000000000000000 O
0S
b0000000000000000000000000000000000000000000000000000000000000000 T
b00000000000000000000000000000000000000000000000000000000000000000 V
b00000000000000000000000000000000000000000000000000000000000000000000000000000000000000000000000000000000000000000000000000000000 Y
0]
b0000000000000000000000000000000000000000000000000000000000000000 ^
b00000000000000000000000000000000000000000000000000000000000000000 `
0c
b00000000000000000000000000000000000000000000000000000000000000000000000000000000000000000000000000000000000000000000000000000000 d
b00000000000000000000000000000000000000000000000000000000000000000000000000000000000000000000000000000000000000000000000000000000 h
b00000000000000000000000000000000000000000000000000000000000000000000000000000000000000000000000000000000000000000000000000000000 l
b00000000000000000000000000000000000000000000000000000000000000000000000000000000000000000000000000000000000000000000000000000000 p
b00000000000000000000000000000000000000000000000000000000000000000000000000000000000000000000000000000000000000000000000000000000 t
b00000000000000000000000000000000000000000000000000000000000000000000000000000000000000000000000000000000000000000000000000000000 x
b00000000000000000000000000000000 |
0}
b00000000000000000000000000000000000000000000000000000000000000000000000000000000000000000000000000000000000000000000000000000000 ~
0$!
b0000000000000000000000000000000000000000000000000000000000000000 %!
b0000000000000000000000000000000000000000000000000000000000000000 '!
b0000000000000000000000000000000000000000000000000000000000000000 )!
b0000000000000000000000000000000000000000000000000000000000000000 +!
0-!
0.!
0/!
00!
b00 1!
b0000000000000000000000000000000000000000000000000000000000000000 2!
b00 4!
b0000000000000000000000000000000000000000000000000000000000000000 5!
b00 7!
b0000000000000000000000000000000000000000000000000000000000000000 8!
b00 :!
b0000000000000000000000000000000000000000000000000000000000000000 ;!
b00 =!
b00000000000000000000000000000000 >!
b00000000000000000000000000000000 ?!
0@!
b00000000000000000000000000000000 A!
b00000000000000000000000000000000000000000000000000000000000000000000000000000000000000000000000000000000000000000000000000000000 B!
0F!
b00000000000000000000000000000000000000000000000000000000000000000000000000000000000000000000000000000000000000000000000000000000 G!
0K!
b00000000000000000000000000000000000000000000000000000000000000000000000000000000000000000000000000000000000000000000000000000000 L!
0P!
b00000000000000000000000000000000000000000000000000000000000000000000000000000000000000000000000000000000000000000000000000000000 Q!
0U!
b000000 V!
b000000 W!
b000000 X!
b000000 Y!
0Z!
1[!
b00000000000000000000000010000000 \!
b0000000000000000000000000000000000000000000000000000000000000000 ]!
b0000000000000000000000000000000000000000000000000000000000000000 _!
b0000000000000000000000000000000000000000000000000000000000000000 a!
b0000000000000000000000000000000000000000000000000000000000000000 c!
b0000000000000000000000000000000000000000000000000000000000000000 e!
b0000000000000000000000000000000000000000000000000000000000000000 g!
b0000000000000000000000000000000000000000000000000000000000000000 i!
b0000000000000000000000000000000000000000000000000000000000000000 k!
b00000000000000000000000000000000000000000000000000000000000000000000000000000000000000000000000000000000000000000000000000000000 m!
b00000000000000000000000000000000000000000000000000000000000000000000000000000000000000000000000000000000000000000000000000000000 q!
b00000000000000000000000000000000000000000000000000000000000000000000000000000000000000000000000000000000000000000000000000000000 u!
b00000000000000000000000000000000000000000000000000000000000000000000000000000000000000000000000000000000000000000000000000000000 y!
b00000000000000000000000000000000000000000000000000000000000000000000000000000000000000000000000000000000000000000000000000000000 }!
0#"
0$"
0%"
0&"
0'"
b00000000000000000000000001000000 ("
b00000000000000000000000000000110 )"
b00000000000000000000000000111111 *"
b0000000000000000000000000000000000000000000000000000000000000000 +"
b0000000000000000000000000000000000000000000000000000000000000000 -"
b0000000000000000000000000000000000000000000000000000000000000000 /"
b0000000000000000000000000000000000000000000000000000000000000000 1"
b00000000000000000000000000000100 3"
#500
1.!
b00000000000000000000000000000011 >!
1@!
b111111 V!
b111111 W!
b111111 X!
b111111 Y!
1Z!
#1000
0Z!
#1500
1Z!
#2000
0#
0Z!
#2500
1}
1-!
0@!
1Z!
#3000
0Z!
#3500
0-!
0.!
10!
b01 1!
b00000000000000000000000000000100 ?!
1Z!
#4000
0Z!
#4500
b1111111111011101100111001111000100000000001110110011100111100010 $
b0000101100011110010111011001110011100010001111001011101100111001 &
b0011101111111001011101100111001101110111111100101110110011100111 (
b1110111111100101110110011100111111011111110010111011001110011110 *
b0100000000010111011001110011110010000000001011101100111001111000 ,
1.
b00000000000000000000000000000100 0
b11101100111001111000100000000000 1
b0000101100011110010111011001110011100010001111001011101100111001 2
b0011101111111001011101100111001101110111111100101110110011100111 4
b1110111111100101110110011100111111011111110010111011001110011110 6
b0100000000010111011001110011110010000000001011101100111001111000 8
b0000101100011110010111011001110011100010001111001011101100111001 @
b00000101100011110010111011001110011100010001111001011101100111001 B
b0011101111111001011101100111001101110111111100101110110011100111 J
b00011101111111001011101100111001101110111111100101110110011100111 L
b1110111111100101110110011100111111011111110010111011001110011110 T
b01110111111100101110110011100111111011111110010111011001110011110 V
b0100000000010111011001110011110010000000001011101100111001111000 ^
b00100000000010111011001110011110010000000001011101100111001111000 `
1c
0}
b1111111111011101100111001111000100000000001110110011100111100010 +!
00!
b01 4!
b01 7!
b01 :!
b1111111111011101100111001111000100000000001110110011100111100010 ;!
b01 =!
1@!
b00000000000000000000000000000011 A!
1Z!
#5000
0Z!
#5500
0c
b01000000000011101100101101010011111110111110100100101010000001011000110100010000101001011011010100101010111100101111110111110000 p
b01000000000011101100101101010011111110111110100100101010000001011000110100010000101001011011010100101010111100101111110111110000 t
b00000000000000000000000000000100 |
b111110 V!
b111110 W!
b111110 X!
b111110 Y!
1Z!
#6000
0Z!
#6500
b111101 V!
b111101 W!
b111101 X!
b111101 Y!
1Z!
#7000
0Z!
#7500
b111100 V!
b111100 W!
b111100 X!
b111100 Y!
1Z!
#8000
0Z!
#8500
b111011 V!
b111011 W!
b111011 X!
b111011 Y!
1Z!
#9000
0Z!
#9500
b111010 V!
b111010 W!
b111010 X!
b111010 Y!
1Z!
#10000
0Z!
#10500
b111001 V!
b111001 W!
b111001 X!
b111001 Y!
1Z!
#11000
0Z!
#11500
b111000 V!
b111000 W!
b111000 X!
b111000 Y!
1Z!
#12000
0Z!
#12500
b110111 V!
b110111 W!
b110111 X!
b110111 Y!
1Z!
#13000
0Z!
#13500
b110110 V!
b110110 W!
b110110 X!
b110110 Y!
1Z!
#14000
0Z!
#14500
b110101 V!
b110101 W!
b110101 X!
b110101 Y!
1Z!
#15000
0Z!
#15500
b110100 V!
b110100 W!
b110100 X!
b110100 Y!
1Z!
#16000
0Z!
#16500
b110011 V!
b110011 W!
b110011 X!
b110011 Y!
1Z!
#17000
0Z!
#17500
b110010 V!
b110010 W!
b110010 X!
b110010 Y!
1Z!
#18000
0Z!
#18500
b110001 V!
b110001 W!
b110001 X!
b110001 Y!
1Z!
#19000
0Z!
#19500
b110000 V!
b110000 W!
b110000 X!
b110000 Y!
1Z!
#20000
0Z!
#20500
b101111 V!
b101111 W!
b101111 X!
b101111 Y!
1Z!
#21000
0Z!
#21500
b101110 V!
b101110 W!
b101110 X!
b101110 Y!
1Z!
#22000
0Z!
#22500
b101101 V!
b101101 W!
b101101 X!
b101101 Y!
1Z!
#23000
0Z!
#23500
b101100 V!
b101100 W!
b101100 X!
b101100 Y!
1Z!
#24000
0Z!
#24500
b101011 V!
b101011 W!
b101011 X!
b101011 Y!
1Z!
#25000
0Z!
#25500
b101010 V!
b101010 W!
b101010 X!
b101010 Y!
1Z!
#26000
0Z!
#26500
b101001 V!
b101001 W!
b101001 X!
b101001 Y!
1Z!
#27000
0Z!
#27500
b101000 V!
b101000 W!
b101000 X!
b101000 Y!
1Z!
#28000
0Z!
#28500
b100111 V!
b100111 W!
b100111 X!
b100111 Y!
1Z!
#29000
0Z!
#29500
b100110 V!
b100110 W!
b100110 X!
b100110 Y!
1Z!
#30000
0Z!
#30500
b100101 V!
b100101 W!
b100101 X!
b100101 Y!
1Z!
#31000
0Z!
#31500
b100100 V!
b100100 W!
b100100 X!
b100100 Y!
1Z!
#32000
0Z!
#32500
b100011 V!
b100011 W!
b100011 X!
b100011 Y!
1Z!
#33000
0Z!
#33500
b100010 V!
b100010 W!
b100010 X!
b100010 Y!
1Z!
#34000
0Z!
#34500
b100001 V!
b100001 W!
b100001 X!
b100001 Y!
1Z!
#35000
0Z!
#35500
b100000 V!
b100000 W!
b100000 X!
b100000 Y!
1Z!
#36000
0Z!
#36500
b011111 V!
b011111 W!
b011111 X!
b011111 Y!
1Z!
#37000
0Z!
#37500
b011110 V!
b011110 W!
b011110 X!
b011110 Y!
1Z!
#38000
0Z!
#38500
b011101 V!
b011101 W!
b011101 X!
b011101 Y!
1Z!
#39000
0Z!
#39500
b011100 V!
b011100 W!
b011100 X!
b011100 Y!
1Z!
#40000
0Z!
#40500
b011011 V!
b011011 W!
b011011 X!
b011011 Y!
1Z!
#41000
0Z!
#41500
b011010 V!
b011010 W!
b011010 X!
b011010 Y!
1Z!
#42000
0Z!
#42500
b011001 V!
b011001 W!
b011001 X!
b011001 Y!
1Z!
#43000
0Z!
#43500
b011000 V!
b011000 W!
b011000 X!
b011000 Y!
1Z!
#44000
0Z!
#44500
b010111 V!
b010111 W!
b010111 X!
b010111 Y!
1Z!
#45000
0Z!
#45500
b010110 V!
b010110 W!
b010110 X!
b010110 Y!
1Z!
#46000
0Z!
#46500
b010101 V!
b010101 W!
b010101 X!
b010101 Y!
1Z!
#47000
0Z!
#47500
b010100 V!
b010100 W!
b010100 X!
b010100 Y!
1Z!
#48000
0Z!
#48500
b010011 V!
b010011 W!
b010011 X!
b010011 Y!
1Z!
#49000
0Z!
#49500
b010010 V!
b010010 W!
b010010 X!
b010010 Y!
1Z!
#50000
0Z!
#50500
b010001 V!
b010001 W!
b010001 X!
b010001 Y!
1Z!
#51000
0Z!
#51500
b010000 V!
b010000 W!
b010000 X!
b010000 Y!
1Z!
#52000
0Z!
#52500
b001111 V!
b001111 W!
b001111 X!
b001111 Y!
1Z!
#53000
0Z!
#53500
b001110 V!
b001110 W!
b001110 X!
b001110 Y!
1Z!
#54000
0Z!
#54500
b001101 V!
b001101 W!
b001101 X!
b001101 Y!
1Z!
#55000
0Z!
#55500
b001100 V!
b001100 W!
b001100 X!
b001100 Y!
1Z!
#56000
0Z!
#56500
b001011 V!
b001011 W!
b001011 X!
b001011 Y!
1Z!
#57000
0Z!
#57500
b001010 V!
b001010 W!
b001010 X!
b001010 Y!
1Z!
#58000
0Z!
#58500
b001001 V!
b001001 W!
b001001 X!
b001001 Y!
1Z!
#59000
0Z!
#59500
b001000 V!
b001000 W!
b001000 X!
b001000 Y!
1Z!
#60000
0Z!
#60500
b000111 V!
b000111 W!
b000111 X!
b000111 Y!
1Z!
#61000
0Z!
#61500
b000110 V!
b000110 W!
b000110 X!
b000110 Y!
1Z!
#62000
0Z!
#62500
b000101 V!
b000101 W!
b000101 X!
b000101 Y!
1Z!
#63000
0Z!
#63500
b000100 V!
b000100 W!
b000100 X!
b000100 Y!
1Z!
#64000
0Z!
#64500
b000011 V!
b000011 W!
b000011 X!
b000011 Y!
1Z!
#65000
0Z!
#65500
b000010 V!
b000010 W!
b000010 X!
b000010 Y!
1Z!
#66000
0Z!
#66500
b000001 V!
b000001 W!
b000001 X!
b000001 Y!
1Z!
#67000
0Z!
#67500
b000000 V!
b000000 W!
b000000 X!
b000000 Y!
1Z!
#68000
0Z!
#68500
b10 4!
b10 7!
b10 :!
b10 =!
b111111 V!
b111111 W!
b111111 X!
b111111 Y!
1Z!
#69000
0Z!
#69500
1?
1I
1S
1]
b00 4!
b00 7!
b00 :!
b00 =!
1F!
1K!
1P!
1U!
1Z!
#70000
0Z!
#70500
b1111110000001100001110111111111111111000000110000111011111111111 $
b1111111111110110011100111100010011111111111011001110011110001000 &
b1111111111011001110011110001000000000000001100111001111000100000 (
b1111111111100111001111000100000000000000001100011000011101111111 *
b0000000011100011000011101111111100000001110001100001110111111111 ,
b00000000000000000000000000000001 /
b01100001110111111111111111100000 1
b1111111111110110011100111100010011111111111011001110011110001000 2
b1111111111011001110011110001000000000000001100111001111000100000 4
b1111111111100111001111000100000000000000001100011000011101111111 6
b0000000011100011000011101111111100000001110001100001110111111111 8
0?
0I
0S
b00000000000000000000000000000000000000000000000000000000000000001111111111011101100111001111000100000000001110110011100111100010 Y
0]
1$!
1/!
b10 1!
0F!
0K!
0P!
b00000000000000000000000000000000000000000000000000000000000000001111111111011101100111001111000100000000001110110011100111100010 Q!
0U!
1Z!
#71000
0Z!
#71500
1:
b1111111111110110011100111100010011111111111011001110011110001000 @
b01111111111110110011100111100010011111111111011001110011110001000 B
b1111111111011001110011110001000000000000001100111001111000100000 J
b01111111111011001110011110001000000000000001100111001111000100000 L
b1111111111100111001111000100000000000000001100011000011101111111 T
b01111111111100111001111000100000000000000001100011000011101111111 V
b0000000011100011000011101111111100000001110001100001110111111111 ^
b00000000011100011000011101111111100000001110001100001110111111111 `
b01000000000011101100101101010011111110111110100100101010000001011000110100010000101001011011010100101010111100101111110111110000 x
0$!
1.!
b00 1!
1Z!
#72000
0Z!
#72500
1}
1-!
0@!
1Z!
#73000
0Z!
#73500
1c
0}
b1111111111011101100111001111000100000000001110110011100111100010 )!
b1111110000001100001110111111111111111000000110000111011111111111 +!
0-!
0.!
0/!
10!
b01 1!
b1111111111011101100111001111000100000000001110110011100111100010 8!
b1111110000001100001110111111111111111000000110000111011111111111 ;!
1@!
1Z!
#74000
0Z!
#74500
b00000000000000000000000000000000000000000000000000000000000000001111111111011101100111001111000100000000001110110011100111100010 O
b00000000000000000000000000000000000000000000000000000000000000001111110000001100001110111111111111111000000110000111011111111111 Y
0c
b11111111110001001101110010000100100101010001001101101101001111110010000000100010011011101000010001101101001010011110010100011110 l
b00000000110111111000110110011100111100010010111111011100011101101011100011111010001101110111100010110100001100010110101000000001 p
b00000000101001000110101000100001100001100100001101001001101101011101100100011100101001011111110100100001010110110100111100011111 t
00!
b01 4!
b01 7!
b01 :!
b01 =!
b00000000000000000000000000000000000000000000000000000000000000001111111111011101100111001111000100000000001110110011100111100010 L!
b00000000000000000000000000000000000000000000000000000000000000001111110000001100001110111111111111111000000110000111011111111111 Q!
1Z!
#75000
0Z!
#75500
b00000000000000000000000000000000000000000000000000000000000000000111111111101110110011100111100010000000000111011001110011110001 O
b00000000011100011000011101111111100000001110001100001110111111111111111000000110000111011111111111111100000011000011101111111111 Y
b00000000101010100100101100111111010000010101010010010110011111110 `
b00000000000000000000000000000000000000000000000000000000000000000111111111101110110011100111100010000000000111011001110011110001 L!
b00000000011100011000011101111111100000001110001100001110111111111111111000000110000111011111111111111100000011000011101111111111 Q!
b111110 V!
b111110 W!
b111110 X!
b111110 Y!
1Z!
#76000
0Z!
#76500
b01111111111100111001111000100000000000000001100011000011101111111011111111110111011001110011110001000000000011101100111001111000 O
b10111111111011010110110100110000000000000010010100100101100111110 V
b00000000101010100100101100111111010000010101010010010110011111110111111100000011000011101111111111111110000001100001110111111111 Y
b00000000110001101010110100011111001000011000110101011010001111110 `
b01111111111100111001111000100000000000000001100011000011101111111011111111110111011001110011110001000000000011101100111001111000 L!
b00000000101010100100101100111111010000010101010010010110011111110111111100000011000011101111111111111110000001100001110111111111 Q!
b111101 V!
b111101 W!
b111101 X!
b111101 Y!
1Z!
#77000
0Z!
#77500
b00111111111110011100111100010000000000000000110001100001110111111101111111111011101100111001111000100000000001110110011100111100 O
b10011111111100001000010110101000000000000001111011110100101011110 V
b00000000110001101010110100011111001000011000110101011010001111110011111110000001100001110111111111111111000000110000111011111111 Y
b00000000110101001101111000001111000100011010100110111100000111110 `
b00111111111110011100111100010000000000000000110001100001110111111101111111111011101100111001111000100000000001110110011100111100 L!
b00000000110001101010110100011111001000011000110101011010001111110011111110000001100001110111111111111111000000110000111011111111 Q!
b111100 V!
b111100 W!
b111100 X!
b111100 Y!
1Z!
#78000
0Z!
#78500
b00011111111111001110011110001000000000000000011000110000111011111110111111111101110110011100111100010000000000111011001110011110 O
b10001111111100100001000111100100000000000001101111011100001101110 V
b00000000110101001101111000001111000100011010100110111100000111110001111111000000110000111011111111111111100000011000011101111111 Y
b00000000110110111111011010000111000010011011011111101101000011110 `
b00011111111111001110011110001000000000000000011000110000111011111110111111111101110110011100111100010000000000111011001110011110 L!
b00000000110101001101111000001111000100011010100110111100000111110001111111000000110000111011111111111111100000011000011101111111 Q!
b111011 V!
b111011 W!
b111011 X!
b111011 Y!
1Z!
#79000
0Z!
#79500
b00001111111111100111001111000100000000000000001100011000011101111111011111111110111011001110011110001000000000011101100111001111 O
b10000111111100101101100000000010000000000001101001001111111110110 V
b00000000110110111111011010000111000010011011011111101101000011110000111111100000011000011101111111111111110000001100001110111111 Y
b00000000110111111000001011000011000001011011111100000101100001110 `
b00001111111111100111001111000100000000000000001100011000011101111111011111111110111011001110011110001000000000011101100111001111 L!
b00000000110110111111011010000111000010011011011111101101000011110000111111100000011000011101111111111111110000001100001110111111 Q!
b111010 V!
b111010 W!
b111010 X!
b111010 Y!
1Z!
#80000
0Z!
#80500
b10000111111100101101100000000010000000000001101001001111111110110111101111111111011101100111001111000100000000001110110011100111 O
b11000011111011010000101000100001000000000010010111101011101111010 V
b00000000110111111000001011000011000001011011111100000101100001110000011111110000001100001110111111111111111000000110000111011111 Y
b00000000111000010100100011100001000000111100001010010001110000110 `
b10000111111100101101100000000010000000000001101001001111111110110111101111111111011101100111001111000100000000001110110011100111 L!
b00000000110111111000001011000011000001011011111100000101100001110000011111110000001100001110111111111111111000000110000111011111 Q!
b111001 V!
b111001 W!
b111001 X!
b111001 Y!
1Z!
#81000
0Z!
#81500
b11000011111011010000101000100001000000000010010111101011101111010011110111111111101110110011100111100010000000000111011001110011 O
b11100001111010100010001100110000100000000010101110111001100111100 V
b00000000111000010100100011100001000000111100001010010001110000110000001111111000000110000111011111111111111100000011000011101111 Y
b00000000111000100010101111110000000000101100010001010111111000010 `
b11000011111011010000101000100001000000000010010111101011101111010011110111111111101110110011100111100010000000000111011001110011 L!
b00000000111000010100100011100001000000111100001010010001110000110000001111111000000110000111011111111111111100000011000011101111 Q!
b111000 V!
b111000 W!
b111000 X!
b111000 Y!
1Z!
#82000
0Z!
#82500
b11100001111010100010001100110000100000000010101110111001100111100001111011111111110111011001110011110001000000000011101100111001 O
b11110000111010001010111110111000010000000010111010100000100011101 V
b00000000111000100010101111110000000000101100010001010111111000010000000111111100000011000011101111111111111110000001100001110111 Y
b00000000111000101001110101110111100000100100010100111010111100000 `
b11100001111010100010001100110000100000000010101110111001100111100001111011111111110111011001110011110001000000000011101100111001 L!
b00000000111000100010101111110000000000101100010001010111111000010000000111111100000011000011101111111111111110000001100001110111 Q!
b110111 V!
b110111 W!
b110111 X!
b110111 Y!
1Z!
#83000
0Z!
#83500
b11110000111010001010111110111000010000000010111010100000100011101000111101111111111011101100111001111000100000000001110110011100 O
b11111000011001111111010111111100001000000011000000010100000001101 V
b00000000111000101001110101110111100000100100010100111010111100000000000011111110000001100001110111111111111111000000110000111011 Y
b00000000111000101101011000111011010000100000010110101100011101111 `
b11110000111010001010111110111000010000000010111010100000100011101000111101111111111011101100111001111000100000000001110110011100 L!
b00000000111000101001110101110111100000100100010100111010111100000000000011111110000001100001110111111111111111000000110000111011 Q!
b110110 V!
b110110 W!
b110110 X!
b110110 Y!
1Z!
#84000
0Z!
#84500
b01111000011101000101011111011100001000000001011101010000010001110100011110111111111101110110011100111100010000000000111011001110 O
b10111100001011011100101000001110000100000010010001101011111000110 V
b00000000111000101101011000111011010000100000010110101100011101111000000001111111000000110000111011111111111111100000011000011101 Y
b00000000111000101111001010011101001000011110010111100101001110110 `
b01111000011101000101011111011100001000000001011101010000010001110100011110111111111101110110011100111100010000000000111011001110 L!
b00000000111000101101011000111011010000100000010110101100011101111000000001111111000000110000111011111111111111100000011000011101 Q!
b110101 V!
b110101 W!
b110101 X!
b110101 Y!
1Z!
#85000
0Z!
