build/verilate/Testbench.vcd
$version Generated by VerilatedVcd $end
$timescale 10ps $end
 $scope module $rootio $end
 $upscope $end
 $scope module Conv $end
  $var wire 32 (" WIDTH [31:0] $end
  $var wire 32 3" LEN [31:0] $end
 $upscope $end
 $scope module Testbench $end
  $var wire 1 Z! clk $end
  $var wire 1 # rst $end
  $var wire 64 $ in_data [63:0] $end
  $scope module kernel $end
   $var wire 64 & data[0] [63:0] $end
   $var wire 64 ( data[1] [63:0] $end
   $var wire 64 * data[2] [63:0] $end
   $var wire 64 , data[3] [63:0] $end
  $upscope $end
  $var wire 1 . in_valid $end
  $var wire 1 } in_ready $end
  $var wire 128 ~ result [127:0] $end
  $var wire 1 $! out_valid $end
  $var wire 1 [! out_ready $end
  $var wire 32 / i [31:0] $end
  $var wire 32 0 j [31:0] $end
  $var wire 32 1 seed [31:0] $end
  $var wire 1 : error $end
  $scope module conv_unit $end
   $var wire 1 Z! clk $end
   $var wire 1 # rst $end
   $var wire 64 $ in_data [63:0] $end
   $scope module kernel $end
    $var wire 64 & data[0] [63:0] $end
    $var wire 64 ( data[1] [63:0] $end
    $var wire 64 * data[2] [63:0] $end
    $var wire 64 , data[3] [63:0] $end
   $upscope $end
   $var wire 1 . in_valid $end
   $var wire 1 } in_ready $end
   $var wire 128 ~ result [127:0] $end
   $var wire 1 $! out_valid $end
   $var wire 1 [! out_ready $end
   $scope module shifted_data $end
    $var wire 64 %! data[0] [63:0] $end
    $var wire 64 '! data[1] [63:0] $end
    $var wire 64 )! data[2] [63:0] $end
    $var wire 64 +! data[3] [63:0] $end
   $upscope $end
   $var wire 1 -! temp_valid $end
   $var wire 1 .! temp_ready $end
   $scope module conv $end
    $var wire 1 Z! clk $end
    $var wire 1 # rst $end
    $scope module kernel $end
     $var wire 64 & data[0] [63:0] $end
     $var wire 64 ( data[1] [63:0] $end
     $var wire 64 * data[2] [63:0] $end
     $var wire 64 , data[3] [63:0] $end
    $upscope $end
    $scope module data $end
     $var wire 64 %! data[0] [63:0] $end
     $var wire 64 '! data[1] [63:0] $end
     $var wire 64 )! data[2] [63:0] $end
     $var wire 64 +! data[3] [63:0] $end
    $upscope $end
    $var wire 1 -! in_valid $end
    $var wire 1 .! in_ready $end
    $var wire 128 ~ result [127:0] $end
    $var wire 1 $! out_valid $end
    $var wire 1 [! out_ready $end
    $var wire 32 \! VECTOR_WIDTH [31:0] $end
    $scope module vector_stage1[0] $end
     $var wire 128 B! data [127:0] $end
     $var wire 1 F! valid $end
    $upscope $end
    $scope module vector_stage1[1] $end
     $var wire 128 G! data [127:0] $end
     $var wire 1 K! valid $end
    $upscope $end
    $scope module vector_stage1[2] $end
     $var wire 128 L! data [127:0] $end
     $var wire 1 P! valid $end
    $upscope $end
    $scope module vector_stage1[3] $end
     $var wire 128 Q! data [127:0] $end
     $var wire 1 U! valid $end
    $upscope $end
    $scope module vector_stage2 $end
     $var wire 128 ~ data [127:0] $end
     $var wire 1 /! valid $end
    $upscope $end
    $var wire 1 0! mul_start $end
    $var wire 2 1! state_reg [1:0] $end
    $scope module temp_ker $end
     $var wire 64 ]! data[0] [63:0] $end
     $var wire 64 _! data[1] [63:0] $end
     $var wire 64 a! data[2] [63:0] $end
     $var wire 64 c! data[3] [63:0] $end
    $upscope $end
    $scope module temp_dat $end
     $var wire 64 e! data[0] [63:0] $end
     $var wire 64 g! data[1] [63:0] $end
     $var wire 64 i! data[2] [63:0] $end
     $var wire 64 k! data[3] [63:0] $end
    $upscope $end
    $var wire 128 m! temp_result[0] [127:0] $end
    $var wire 128 q! temp_result[1] [127:0] $end
    $var wire 128 u! temp_result[2] [127:0] $end
    $var wire 128 y! temp_result[3] [127:0] $end
    $var wire 128 }! temp_result[4] [127:0] $end
    $var wire 1 #" temp_finish[0] $end
    $var wire 1 $" temp_finish[1] $end
    $var wire 1 %" temp_finish[2] $end
    $var wire 1 &" temp_finish[3] $end
    $var wire 1 '" temp_finish[4] $end
    $scope module mul_gen[0] $end
     $scope module mul $end
      $var wire 32 (" LEN [31:0] $end
      $var wire 1 Z! clk $end
      $var wire 1 # rst $end
      $var wire 64 2 multiplicand [63:0] $end
      $var wire 64 2! multiplier [63:0] $end
      $var wire 1 0! start $end
      $var wire 128 ; product [127:0] $end
      $var wire 1 ? finish $end
      $var wire 32 \! PRODUCT_LEN [31:0] $end
      $var wire 64 @ multiplicand_reg [63:0] $end
      $var wire 128 ; product_reg [127:0] $end
      $var wire 32 )" CNT_LEN [31:0] $end
      $var wire 32 *" CNT_NUM [31:0] $end
      $var wire 2 4! fsm_state_reg [1:0] $end
      $var wire 6 V! work_cnt [5:0] $end
      $var wire 1 ? finish_reg $end
      $var wire 65 B add_result [64:0] $end
     $upscope $end
    $upscope $end
    $scope module mul_gen[1] $end
     $scope module mul $end
      $var wire 32 (" LEN [31:0] $end
      $var wire 1 Z! clk $end
      $var wire 1 # rst $end
      $var wire 64 4 multiplicand [63:0] $end
      $var wire 64 5! multiplier [63:0] $end
      $var wire 1 0! start $end
      $var wire 128 E product [127:0] $end
      $var wire 1 I finish $end
      $var wire 32 \! PRODUCT_LEN [31:0] $end
      $var wire 64 J multiplicand_reg [63:0] $end
      $var wire 128 E product_reg [127:0] $end
      $var wire 32 )" CNT_LEN [31:0] $end
      $var wire 32 *" CNT_NUM [31:0] $end
      $var wire 2 7! fsm_state_reg [1:0] $end
      $var wire 6 W! work_cnt [5:0] $end
      $var wire 1 I finish_reg $end
      $var wire 65 L add_result [64:0] $end
     $upscope $end
    $upscope $end
    $scope module mul_gen[2] $end
     $scope module mul $end
      $var wire 32 (" LEN [31:0] $end
      $var wire 1 Z! clk $end
      $var wire 1 # rst $end
      $var wire 64 6 multiplicand [63:0] $end
      $var wire 64 8! multiplier [63:0] $end
      $var wire 1 0! start $end
      $var wire 128 O product [127:0] $end
      $var wire 1 S finish $end
      $var wire 32 \! PRODUCT_LEN [31:0] $end
      $var wire 64 T multiplicand_reg [63:0] $end
      $var wire 128 O product_reg [127:0] $end
      $var wire 32 )" CNT_LEN [31:0] $end
      $var wire 32 *" CNT_NUM [31:0] $end
      $var wire 2 :! fsm_state_reg [1:0] $end
      $var wire 6 X! work_cnt [5:0] $end
      $var wire 1 S finish_reg $end
      $var wire 65 V add_result [64:0] $end
     $upscope $end
    $upscope $end
    $scope module mul_gen[3] $end
     $scope module mul $end
      $var wire 32 (" LEN [31:0] $end
      $var wire 1 Z! clk $end
      $var wire 1 # rst $end
      $var wire 64 8 multiplicand [63:0] $end
      $var wire 64 ;! multiplier [63:0] $end
      $var wire 1 0! start $end
      $var wire 128 Y product [127:0] $end
      $var wire 1 ] finish $end
      $var wire 32 \! PRODUCT_LEN [31:0] $end
      $var wire 64 ^ multiplicand_reg [63:0] $end
      $var wire 128 Y product_reg [127:0] $end
      $var wire 32 )" CNT_LEN [31:0] $end
      $var wire 32 *" CNT_NUM [31:0] $end
      $var wire 2 =! fsm_state_reg [1:0] $end
      $var wire 6 Y! work_cnt [5:0] $end
      $var wire 1 ] finish_reg $end
      $var wire 65 ` add_result [64:0] $end
     $upscope $end
    $upscope $end
    $scope module unnamedblk1 $end
     $var wire 32 >! j [31:0] $end
    $upscope $end
    $scope module unnamedblk2 $end
     $var wire 32 ?! m [31:0] $end
    $upscope $end
   $upscope $end
   $scope module shift $end
    $var wire 1 Z! clk $end
    $var wire 1 # rst $end
    $var wire 64 $ in_data [63:0] $end
    $var wire 1 . in_valid $end
    $var wire 1 } in_ready $end
    $scope module data $end
     $var wire 64 %! data[0] [63:0] $end
     $var wire 64 '! data[1] [63:0] $end
     $var wire 64 )! data[2] [63:0] $end
     $var wire 64 +! data[3] [63:0] $end
    $upscope $end
    $var wire 1 -! out_valid $end
    $var wire 1 .! out_ready $end
    $var wire 2 @! state_reg [1:0] $end
    $var wire 64 +" data_reg[0] [63:0] $end
    $var wire 64 -" data_reg[1] [63:0] $end
    $var wire 64 /" data_reg[2] [63:0] $end
    $var wire 64 1" data_reg[3] [63:0] $end
    $var wire 32 A! i [31:0] $end
   $upscope $end
  $upscope $end
  $scope module judge $end
   $var wire 1 Z! clk $end
   $var wire 1 # rst $end
   $var wire 64 $ in_data [63:0] $end
   $scope module kernel $end
    $var wire 64 & data[0] [63:0] $end
    $var wire 64 ( data[1] [63:0] $end
    $var wire 64 * data[2] [63:0] $end
    $var wire 64 , data[3] [63:0] $end
   $upscope $end
   $var wire 1 . in_valid $end
   $var wire 1 } in_ready $end
   $var wire 128 ~ result [127:0] $end
   $var wire 1 $! out_valid $end
   $var wire 1 [! out_ready $end
   $var wire 1 : error $end
   $var wire 1 c request $end
   $var wire 128 d mid[0] [127:0] $end
   $var wire 128 h mid[1] [127:0] $end
   $var wire 128 l mid[2] [127:0] $end
   $var wire 128 p mid[3] [127:0] $end
   $var wire 128 t sum [127:0] $end
   $var wire 128 x simulate_result [127:0] $end
   $var wire 32 | i [31:0] $end
  $upscope $end
 $upscope $end
$enddefinitions $end


#0
1#
b0000000000000000000000000000000000000000000000000000000000000000 $
b0000000000000000000000000000000000000000000000000000000000000000 &
b0000000000000000000000000000000000000000000000000000000000000000 (
b0000000000000000000000000000000000000000000000000000000000000000 *
b0000000000000000000000000000000000000000000000000000000000000000 ,
0.
b00000000000000000000000000000000 /
b00000000000000000000000000000000 0
b00000000000000000000000000000000 1
b0000000000000000000000000000000000000000000000000000000000000000 2
b0000000000000000000000000000000000000000000000000000000000000000 4
b0000000000000000000000000000000000000000000000000000000000000000 6
b0000000000000000000000000000000000000000000000000000000000000000 8
0:
b00000000000000000000000000000000000000000000000000000000000000000000000000000000000000000000000000000000000000000000000000000000 ;
0?
b0000000000000000000000000000000000000000000000000000000000000000 @
b00000000000000000000000000000000000000000000000000000000000000000 B
b00000000000000000000000000000000000000000000000000000000000000000000000000000000000000000000000000000000000000000000000000000000 E
0I
b0000000000000000000000000000000000000000000000000000000000000000 J
b00000000000000000000000000000000000000000000000000000000000000000 L
b00000000000000000000000000000000000000000000000000000000000000000000000000000000000000000000000000000000000000000000000000000000 O
0S
b0000000000000000000000000000000000000000000000000000000000000000 T
b00000000000000000000000000000000000000000000000000000000000000000 V
b00000000000000000000000000000000000000000000000000000000000000000000000000000000000000000000000000000000000000000000000000000000 Y
0]
b0000000000000000000000000000000000000000000000000000000000000000 ^
b00000000000000000000000000000000000000000000000000000000000000000 `
0c
b00000000000000000000000000000000000000000000000000000000000000000000000000000000000000000000000000000000000000000000000000000000 d
b00000000000000000000000000000000000000000000000000000000000000000000000000000000000000000000000000000000000000000000000000000000 h
b00000000000000000000000000000000000000000000000000000000000000000000000000000000000000000000000000000000000000000000000000000000 l
b00000000000000000000000000000000000000000000000000000000000000000000000000000000000000000000000000000000000000000000000000000000 p
b00000000000000000000000000000000000000000000000000000000000000000000000000000000000000000000000000000000000000000000000000000000 t
b00000000000000000000000000000000000000000000000000000000000000000000000000000000000000000000000000000000000000000000000000000000 x
b00000000000000000000000000000000 |
0}
b00000000000000000000000000000000000000000000000000000000000000000000000000000000000000000000000000000000000000000000000000000000 ~
0$!
b0000000000000000000000000000000000000000000000000000000000000000 %!
b0000000000000000000000000000000000000000000000000000000000000000 '!
b0000000000000000000000000000000000000000000000000000000000000000 )!
b0000000000000000000000000000000000000000000000000000000000000000 +!
0-!
0.!
0/!
00!
b00 1!
b0000000000000000000000000000000000000000000000000000000000000000 2!
b00 4!
b0000000000000000000000000000000000000000000000000000000000000000 5!
b00 7!
b0000000000000000000000000000000000000000000000000000000000000000 8!
b00 :!
b0000000000000000000000000000000000000000000000000000000000000000 ;!
b00 =!
b00000000000000000000000000000000 >!
b00000000000000000000000000000000 ?!
b00 @!
b00000000000000000000000000000000 A!
b00000000000000000000000000000000000000000000000000000000000000000000000000000000000000000000000000000000000000000000000000000000 B!
0F!
b00000000000000000000000000000000000000000000000000000000000000000000000000000000000000000000000000000000000000000000000000000000 G!
0K!
b00000000000000000000000000000000000000000000000000000000000000000000000000000000000000000000000000000000000000000000000000000000 L!
0P!
b00000000000000000000000000000000000000000000000000000000000000000000000000000000000000000000000000000000000000000000000000000000 Q!
0U!
b000000 V!
b000000 W!
b000000 X!
b000000 Y!
0Z!
1[!
b00000000000000000000000010000000 \!
b0000000000000000000000000000000000000000000000000000000000000000 ]!
b0000000000000000000000000000000000000000000000000000000000000000 _!
b0000000000000000000000000000000000000000000000000000000000000000 a!
b0000000000000000000000000000000000000000000000000000000000000000 c!
b0000000000000000000000000000000000000000000000000000000000000000 e!
b0000000000000000000000000000000000000000000000000000000000000000 g!
b0000000000000000000000000000000000000000000000000000000000000000 i!
b0000000000000000000000000000000000000000000000000000000000000000 k!
b00000000000000000000000000000000000000000000000000000000000000000000000000000000000000000000000000000000000000000000000000000000 m!
b00000000000000000000000000000000000000000000000000000000000000000000000000000000000000000000000000000000000000000000000000000000 q!
b00000000000000000000000000000000000000000000000000000000000000000000000000000000000000000000000000000000000000000000000000000000 u!
b00000000000000000000000000000000000000000000000000000000000000000000000000000000000000000000000000000000000000000000000000000000 y!
b00000000000000000000000000000000000000000000000000000000000000000000000000000000000000000000000000000000000000000000000000000000 }!
0#"
0$"
0%"
0&"
0'"
b00000000000000000000000001000000 ("
b00000000000000000000000000000110 )"
b00000000000000000000000000111111 *"
b0000000000000000000000000000000000000000000000000000000000000000 +"
b0000000000000000000000000000000000000000000000000000000000000000 -"
b0000000000000000000000000000000000000000000000000000000000000000 /"
b0000000000000000000000000000000000000000000000000000000000000000 1"
b00000000000000000000000000000100 3"
#500
1.!
b00000000000000000000000000000011 >!
b01 @!
b111111 V!
b111111 W!
b111111 X!
b111111 Y!
1Z!
#1000
0Z!
#1500
1Z!
#2000
0#
0Z!
#2500
1Z!
#3000
0Z!
#3500
1Z!
#4000
0Z!
#4500
b1111111111011101100111001111000100000000001110110011100111100010 $
b0000101100011110010111011001110011100010001111001011101100111001 &
b0011101111111001011101100111001101110111111100101110110011100111 (
b1110111111100101110110011100111111011111110010111011001110011110 *
b0100000000010111011001110011110010000000001011101100111001111000 ,
1.
b00000000000000000000000000000100 0
b11101100111001111000100000000000 1
b0000101100011110010111011001110011100010001111001011101100111001 2
b0011101111111001011101100111001101110111111100101110110011100111 4
b1110111111100101110110011100111111011111110010111011001110011110 6
b0100000000010111011001110011110010000000001011101100111001111000 8
b0000101100011110010111011001110011100010001111001011101100111001 @
b00000101100011110010111011001110011100010001111001011101100111001 B
b0011101111111001011101100111001101110111111100101110110011100111 J
b00011101111111001011101100111001101110111111100101110110011100111 L
b1110111111100101110110011100111111011111110010111011001110011110 T
b01110111111100101110110011100111111011111110010111011001110011110 V
b0100000000010111011001110011110010000000001011101100111001111000 ^
b00100000000010111011001110011110010000000001011101100111001111000 `
1}
1-!
b00 @!
1Z!
#5000
0Z!
#5500
1c
0}
b1111111111011101100111001111000100000000001110110011100111100010 +!
0-!
0.!
10!
b01 1!
b1111111111011101100111001111000100000000001110110011100111100010 ;!
b00000000000000000000000000000100 ?!
b01 @!
b00000000000000000000000000000011 A!
1Z!
#6000
0Z!
#6500
b00000000000000000000000000000000000000000000000000000000000000001111111111011101100111001111000100000000001110110011100111100010 Y
0c
b01000000000011101100101101010011111110111110100100101010000001011000110100010000101001011011010100101010111100101111110111110000 p
b01000000000011101100101101010011111110111110100100101010000001011000110100010000101001011011010100101010111100101111110111110000 t
b00000000000000000000000000000100 |
00!
b01 4!
b01 7!
b01 :!
b01 =!
b00000000000000000000000000000000000000000000000000000000000000001111111111011101100111001111000100000000001110110011100111100010 Q!
1Z!
#7000
0Z!
#7500
b00000000000000000000000000000000000000000000000000000000000000000111111111101110110011100111100010000000000111011001110011110001 Y
b00000000000000000000000000000000000000000000000000000000000000000111111111101110110011100111100010000000000111011001110011110001 Q!
b111110 V!
b111110 W!
b111110 X!
b111110 Y!
1Z!
#8000
0Z!
#8500
b00100000000010111011001110011110010000000001011101100111001111000011111111110111011001110011110001000000000011101100111001111000 Y
b00110000000100011000110101101101011000000010001100011010110110100 `
b00100000000010111011001110011110010000000001011101100111001111000011111111110111011001110011110001000000000011101100111001111000 Q!
b111101 V!
b111101 W!
b111101 X!
b111101 Y!
1Z!
#9000
0Z!
#9500
b00010000000001011101100111001111001000000000101110110011100111100001111111111011101100111001111000100000000001110110011100111100 Y
b00101000000011101010000010000101110100000001110101000001000010110 `
b00010000000001011101100111001111001000000000101110110011100111100001111111111011101100111001111000100000000001110110011100111100 Q!
b111100 V!
b111100 W!
b111100 X!
b111100 Y!
1Z!
#10000
0Z!
#10500
b00001000000000101110110011100111100100000000010111011001110011110000111111111101110110011100111100010000000000111011001110011110 Y
b00100100000011010010101000010010000010000001101001010100001000111 `
b00001000000000101110110011100111100100000000010111011001110011110000111111111101110110011100111100010000000000111011001110011110 Q!
b111011 V!
b111011 W!
b111011 X!
b111011 Y!
1Z!
#11000
0Z!
#11500
b00000100000000010111011001110011110010000000001011101100111001111000011111111110111011001110011110001000000000011101100111001111 Y
b00100010000011000110111011011000001001000001100011011101101011111 `
b00000100000000010111011001110011110010000000001011101100111001111000011111111110111011001110011110001000000000011101100111001111 Q!
b111010 V!
b111010 W!
b111010 X!
b111010 Y!
1Z!
#12000
0Z!
#12500
b00100010000011000110111011011000001001000001100011011101101011111100001111111111011101100111001111000100000000001110110011100111 Y
b00110001000100011110101100001010010100100010001111010110000100111 `
b00100010000011000110111011011000001001000001100011011101101011111100001111111111011101100111001111000100000000001110110011100111 Q!
b111001 V!
b111001 W!
b111001 X!
b111001 Y!
1Z!
#13000
0Z!
#13500
b00110001000100011110101100001010010100100010001111010110000100111110000111111111101110110011100111100010000000000111011001110011 Y
b00111000100101001010100100100011011010010010100101010010010001011 `
b00110001000100011110101100001010010100100010001111010110000100111110000111111111101110110011100111100010000000000111011001110011 Q!
b111000 V!
b111000 W!
b111000 X!
b111000 Y!
1Z!
#14000
0Z!
#14500
b00111000100101001010100100100011011010010010100101010010010001011111000011111111110111011001110011110001000000000011101100111001 Y
b00111100010101100000100000101111111101001010110000010000010111101 `
b00111000100101001010100100100011011010010010100101010010010001011111000011111111110111011001110011110001000000000011101100111001 Q!
b110111 V!
b110111 W!
b110111 X!
b110111 Y!
1Z!
#15000
0Z!
#15500
b00111100010101100000100000101111111101001010110000010000010111101111100001111111111011101100111001111000100000000001110110011100 Y
b00111110001101101011011110110110001110100110110101101111011010110 `
b00111100010101100000100000101111111101001010110000010000010111101111100001111111111011101100111001111000100000000001110110011100 Q!
b110110 V!
b110110 W!
b110110 X!
b110110 Y!
1Z!
#16000
0Z!
#16500
b00011110001010110000010000010111111110100101011000001000001011110111110000111111111101110110011100111100010000000000111011001110 Y
b00101111001000010011010110101010001111010100001001101011010100111 `
b00011110001010110000010000010111111110100101011000001000001011110111110000111111111101110110011100111100010000000000111011001110 Q!
b110101 V!
b110101 W!
b110101 X!
b110101 Y!
1Z!
#17000
0Z!
#17500
b00001111000101011000001000001011111111010010101100000100000101111011111000011111111110111011001110011110001000000000011101100111 Y
b00100111100101100111010010100100001111101010110011101001010001111 `
b00001111000101011000001000001011111111010010101100000100000101111011111000011111111110111011001110011110001000000000011101100111 Q!
b110100 V!
b110100 W!
b110100 X!
b110100 Y!
1Z!
#18000
0Z!
#18500
b00100111100101100111010010100100001111101010110011101001010001111101111100001111111111011101100111001111000100000000001110110011 Y
b00110011110101101110110111110000010111110110110111011011110111111 `
b00100111100101100111010010100100001111101010110011101001010001111101111100001111111111011101100111001111000100000000001110110011 Q!
b110011 V!
b110011 W!
b110011 X!
b110011 Y!
1Z!
#19000
0Z!
#19500
b00110011110101101110110111110000010111110110110111011011110111111110111110000111111111101110110011100111100010000000000111011001 Y
b00111001111101110010101010010110011011111100111001010101001010111 `
b00110011110101101110110111110000010111110110110111011011110111111110111110000111111111101110110011100111100010000000000111011001 Q!
b110010 V!
b110010 W!
b110010 X!
b110010 Y!
1Z!
#20000
0Z!
#20500
b00111001111101110010101010010110011011111100111001010101001010111111011111000011111111110111011001110011110001000000000011101100 Y
b00111101000001110100100011101001011101111111111010010001110100011 `
b00111001111101110010101010010110011011111100111001010101001010111111011111000011111111110111011001110011110001000000000011101100 Q!
b110001 V!
b110001 W!
b110001 X!
b110001 Y!
1Z!
#21000
0Z!
#21500
b00011100111110111001010101001011001101111110011100101010100101011111101111100001111111111011101100111001111000100000000001110110 Y
b00101110100010010111111001000011110111000000101011111100100001101 `
b00011100111110111001010101001011001101111110011100101010100101011111101111100001111111111011101100111001111000100000000001110110 Q!
b110000 V!
b110000 W!
b110000 X!
b110000 Y!
1Z!
#22000
0Z!
#22500
b00001110011111011100101010100101100110111111001110010101010010101111110111110000111111111101110110011100111100010000000000111011 Y
b00100111010010101001100011110001000011100001000100110001111000010 `
b00001110011111011100101010100101100110111111001110010101010010101111110111110000111111111101110110011100111100010000000000111011 Q!
b101111 V!
b101111 W!
b101111 X!
b101111 Y!
1Z!
#23000
0Z!
#23500
b00100111010010101001100011110001000011100001000100110001111000010111111011111000011111111110111011001110011110001000000000011101 Y
b00110011101100010000000000010110110001110010000000000000001011001 `
b00100111010010101001100011110001000011100001000100110001111000010111111011111000011111111110111011001110011110001000000000011101 Q!
b101110 V!
b101110 W!
b101110 X!
b101110 Y!
1Z!
#24000
0Z!
#24500
b00110011101100010000000000010110110001110010000000000000001011001011111101111100001111111111011101100111001111000100000000001110 Y
b00111001111001000011001110101001101000111010011101100111010100100 `
b00110011101100010000000000010110110001110010000000000000001011001011111101111100001111111111011101100111001111000100000000001110 Q!
b101101 V!
b101101 W!
b101101 X!
b101101 Y!
1Z!
#25000
0Z!
#25500
b00011001110110001000000000001011011000111001000000000000000101100101111110111110000111111111101110110011100111100010000000000111 Y
b00101100111101111111001110100011111100011101111101100111010001110 `
b00011001110110001000000000001011011000111001000000000000000101100101111110111110000111111111101110110011100111100010000000000111 Q!
b101100 V!
b101100 W!
b101100 X!
b101100 Y!
1Z!
#26000
0Z!
#26500
b00101100111101111111001110100011111100011101111101100111010001110010111111011111000011111111110111011001110011110001000000000011 Y
b00110110100001111010110101110000001110010000011100011010110111111 `
b00101100111101111111001110100011111100011101111101100111010001110010111111011111000011111111110111011001110011110001000000000011 Q!
b101011 V!
b101011 W!
b101011 X!
b101011 Y!
1Z!
#27000
0Z!
#27500
b00110110100001111010110101110000001110010000011100011010110111111001011111101111100001111111111011101100111001111000100000000001 Y
b00111011010011111000101001010110010111001001101011110100101010111 `
b00110110100001111010110101110000001110010000011100011010110111111001011111101111100001111111111011101100111001111000100000000001 Q!
b101010 V!
b101010 W!
b101010 X!
b101010 Y!
1Z!
#28000
0Z!
#28500
b00111011010011111000101001010110010111001001101011110100101010111100101111110111110000111111111101110110011100111100010000000000 Y
b00111101101100110111100011001001011011100110010011100001100100011 `
b00111011010011111000101001010110010111001001101011110100101010111100101111110111110000111111111101110110011100111100010000000000 Q!
b101001 V!
b101001 W!
b101001 X!
b101001 Y!
1Z!
#29000
0Z!
#29500
b00011101101001111100010100101011001011100100110101111010010101011110010111111011111000011111111110111011001110011110001000000000 Y
b00101110110111111001011000110011110101110011111000100100011001101 `
b00011101101001111100010100101011001011100100110101111010010101011110010111111011111000011111111110111011001110011110001000000000 Q!
b101000 V!
b101000 W!
b101000 X!
b101000 Y!
1Z!
#30000
0Z!
#30500
b00001110110100111110001010010101100101110010011010111101001010101111001011111101111100001111111111011101100111001111000100000000 Y
b00100111011101011010010011101001000010111010101011000101110100010 `
b00001110110100111110001010010101100101110010011010111101001010101111001011111101111100001111111111011101100111001111000100000000 Q!
b100111 V!
b100111 W!
b100111 X!
b100111 Y!
1Z!
#31000
0Z!
#31500
b00000111011010011111000101001010110010111001001101011110100101010111100101111110111110000111111111101110110011100111100010000000 Y
b00100011110000001010110001000011101001011110000100010110100001101 `
b00000111011010011111000101001010110010111001001101011110100101010111100101111110111110000111111111101110110011100111100010000000 Q!
b100110 V!
b100110 W!
b100110 X!
b100110 Y!
1Z!
#32000
0Z!
#32500
b00000011101101001111100010100101011001011100100110101111010010101011110010111111011111000011111111110111011001110011110001000000 Y
b00100001111001100010111111110000111100101111110000111110111000010 `
b00000011101101001111100010100101011001011100100110101111010010101011110010111111011111000011111111110111011001110011110001000000 Q!
b100101 V!
b100101 W!
b100101 X!
b100101 Y!
1Z!
#33000
0Z!
#33500
b00000001110110100111110001010010101100101110010011010111101001010101111001011111101111100001111111111011101100111001111000100000 Y
b00100000111110001111000111000111100110011000100111010011000011101 `
b00000001110110100111110001010010101100101110010011010111101001010101111001011111101111100001111111111011101100111001111000100000 Q!
b100100 V!
b100100 W!
b100100 X!
b100100 Y!
1Z!
#34000
0Z!
#34500
b00000000111011010011111000101001010110010111001001101011110100101010111100101111110111110000111111111101110110011100111100010000 Y
b00100000100000100101001010110010111011001101000010011101001001010 `
b00000000111011010011111000101001010110010111001001101011110100101010111100101111110111110000111111111101110110011100111100010000 Q!
b100011 V!
b100011 W!
b100011 X!
b100011 Y!
1Z!
#35000
0Z!
#35500
b00000000011101101001111100010100101011001011100100110101111010010101011110010111111011111000011111111110111011001110011110001000 Y
b00100000010001110000001100101000100101100111010000000010001100001 `
b00000000011101101001111100010100101011001011100100110101111010010101011110010111111011111000011111111110111011001110011110001000 Q!
b100010 V!
b100010 W!
b100010 X!
b100010 Y!
1Z!
#36000
0Z!
#36500
b00000000001110110100111110001010010101100101110010011010111101001010101111001011111101111100001111111111011101100111001111000100 Y
b00100000001010010101101101100011011010110100010110110100101101100 `
b00000000001110110100111110001010010101100101110010011010111101001010101111001011111101111100001111111111011101100111001111000100 Q!
b100001 V!
b100001 W!
b100001 X!
b100001 Y!
1Z!
#37000
0Z!
#37500
b00000000000111011010011111000101001010110010111001001101011110100101010111100101111110111110000111111111101110110011100111100010 Y
b00100000000110101000011110000000110101011010111010001101111110010 `
b00000000000111011010011111000101001010110010111001001101011110100101010111100101111110111110000111111111101110110011100111100010 Q!
b100000 V!
b100000 W!
b100000 X!
b100000 Y!
1Z!
#38000
0Z!
#38500
b00000000000011101101001111100010100101011001011100100110101111010010101011110010111111011111000011111111110111011001110011110001 Y
b00100000000100110001110110001111100010101110001011111010100110101 `
b00000000000011101101001111100010100101011001011100100110101111010010101011110010111111011111000011111111110111011001110011110001 Q!
b011111 V!
b011111 W!
b011111 X!
b011111 Y!
1Z!
#39000
0Z!
#39500
b00100000000100110001110110001111100010101110001011111010100110101001010101111001011111101111100001111111111011101100111001111000 Y
b00110000000101010100001001100110000001011000100011100100100010010 `
b00100000000100110001110110001111100010101110001011111010100110101001010101111001011111101111100001111111111011101100111001111000 Q!
b011110 V!
b011110 W!
b011110 X!
b011110 Y!
1Z!
#40000
0Z!
#40500
b00010000000010011000111011000111110001010111000101111101010011010100101010111100101111110111110000111111111101110110011100111100 Y
b00101000000100000111101100000010001000101101000000100101111000101 `
b00010000000010011000111011000111110001010111000101111101010011010100101010111100101111110111110000111111111101110110011100111100 Q!
b011101 V!
b011101 W!
b011101 X!
b011101 Y!
1Z!
#41000
0Z!
#41500
b00001000000001001100011101100011111000101011100010111110101001101010010101011110010111111011111000011111111110111011001110011110 Y
b00100100000011100001011101010000001100010111001111000110100011110 `
b00001000000001001100011101100011111000101011100010111110101001101010010101011110010111111011111000011111111110111011001110011110 Q!
b011100 V!
b011100 W!
b011100 X!
b011100 Y!
1Z!
#42000
0Z!
#42500
b00000100000000100110001110110001111100010101110001011111010100110101001010101111001011111101111100001111111111011101100111001111 Y
b00100010000011001110010101110111001110001100010110010110111001011 `
b00000100000000100110001110110001111100010101110001011111010100110101001010101111001011111101111100001111111111011101100111001111 Q!
b011011 V!
b011011 W!
b011011 X!
b011011 Y!
1Z!
#43000
0Z!
#43500
b00100010000011001110010101110111001110001100010110010110111001011010100101010111100101111110111110000111111111101110110011100111 Y
b00110001000100100010011001011001110111000111101000110010101011101 `
b00100010000011001110010101110111001110001100010110010110111001011010100101010111100101111110111110000111111111101110110011100111 Q!
b011010 V!
b011010 W!
b011010 X!
b011010 Y!
1Z!
#44000
0Z!
#44500
b00110001000100100010011001011001110111000111101000110010101011101101010010101011110010111111011111000011111111110111011001110011 Y
b00111000100101001100011011001011001011100101010010000000100100110 `
b00110001000100100010011001011001110111000111101000110010101011101101010010101011110010111111011111000011111111110111011001110011 Q!
b011001 V!
b011001 W!
b011001 X!
b011001 Y!
1Z!
#45000
0Z!
#45500
b00111000100101001100011011001011001011100101010010000000100100110110101001010101111001011111101111100001111111111011101100111001 Y
b00111100010101100001011100000011110101110100000110100111100001011 `
b00111000100101001100011011001011001011100101010010000000100100110110101001010101111001011111101111100001111111111011101100111001 Q!
b011000 V!
b011000 W!
b011000 X!
b011000 Y!
1Z!
#46000
0Z!
#46500
b00111100010101100001011100000011110101110100000110100111100001011011010100101010111100101111110111110000111111111101110110011100 Y
b00111110001101101011111100100000001010111011100000111010111111101 `
b00111100010101100001011100000011110101110100000110100111100001011011010100101010111100101111110111110000111111111101110110011100 Q!
b010111 V!
b010111 W!
b010111 X!
b010111 Y!
1Z!
#47000
0Z!
#47500
b00011110001010110000101110000001111010111010000011010011110000101101101010010101011110010111111011111000011111111110111011001110 Y
b00101111001000010011100101011111001101011110011111010001000111010 `
b00011110001010110000101110000001111010111010000011010011110000101101101010010101011110010111111011111000011111111110111011001110 Q!
b010110 V!
b010110 W!
b010110 X!
b010110 Y!
1Z!
#48000
0Z!
#48500
b00001111000101011000010111000000111101011101000001101001111000010110110101001010101111001011111101111100001111111111011101100111 Y
b00100111100101100111011001111110101110101111111110011100001011001 `
b00001111000101011000010111000000111101011101000001101001111000010110110101001010101111001011111101111100001111111111011101100111 Q!
b010101 V!
b010101 W!
b010101 X!
b010101 Y!
1Z!
#49000
0Z!
