build/verilate/Testbench.vcd
$version Generated by VerilatedVcd $end
$timescale 10ps $end
 $scope module $rootio $end
 $upscope $end
 $scope module Conv $end
  $var wire 32 [! WIDTH [31:0] $end
  $var wire 32 ^! LEN [31:0] $end
 $upscope $end
 $scope module Testbench $end
  $var wire 1 X! clk $end
  $var wire 1 # rst $end
  $var wire 64 $ in_data [63:0] $end
  $scope module kernel $end
   $var wire 64 & data[0] [63:0] $end
   $var wire 64 ( data[1] [63:0] $end
   $var wire 64 * data[2] [63:0] $end
   $var wire 64 , data[3] [63:0] $end
  $upscope $end
  $var wire 1 . in_valid $end
  $var wire 1 } in_ready $end
  $var wire 128 ~ result [127:0] $end
  $var wire 1 $! out_valid $end
  $var wire 1 Y! out_ready $end
  $var wire 32 / i [31:0] $end
  $var wire 32 0 j [31:0] $end
  $var wire 32 1 seed [31:0] $end
  $var wire 1 : error $end
  $scope module conv_unit $end
   $var wire 1 X! clk $end
   $var wire 1 # rst $end
   $var wire 64 $ in_data [63:0] $end
   $scope module kernel $end
    $var wire 64 & data[0] [63:0] $end
    $var wire 64 ( data[1] [63:0] $end
    $var wire 64 * data[2] [63:0] $end
    $var wire 64 , data[3] [63:0] $end
   $upscope $end
   $var wire 1 . in_valid $end
   $var wire 1 } in_ready $end
   $var wire 128 ~ result [127:0] $end
   $var wire 1 $! out_valid $end
   $var wire 1 Y! out_ready $end
   $scope module shifted_data $end
    $var wire 64 %! data[0] [63:0] $end
    $var wire 64 '! data[1] [63:0] $end
    $var wire 64 )! data[2] [63:0] $end
    $var wire 64 +! data[3] [63:0] $end
   $upscope $end
   $var wire 1 -! temp_valid $end
   $var wire 1 .! temp_ready $end
   $scope module conv $end
    $var wire 1 X! clk $end
    $var wire 1 # rst $end
    $scope module kernel $end
     $var wire 64 & data[0] [63:0] $end
     $var wire 64 ( data[1] [63:0] $end
     $var wire 64 * data[2] [63:0] $end
     $var wire 64 , data[3] [63:0] $end
    $upscope $end
    $scope module data $end
     $var wire 64 %! data[0] [63:0] $end
     $var wire 64 '! data[1] [63:0] $end
     $var wire 64 )! data[2] [63:0] $end
     $var wire 64 +! data[3] [63:0] $end
    $upscope $end
    $var wire 1 -! in_valid $end
    $var wire 1 .! in_ready $end
    $var wire 128 ~ result [127:0] $end
    $var wire 1 $! out_valid $end
    $var wire 1 Y! out_ready $end
    $var wire 32 Z! VECTOR_WIDTH [31:0] $end
    $scope module vector_stage1[0] $end
     $var wire 128 @! data [127:0] $end
     $var wire 1 D! valid $end
    $upscope $end
    $scope module vector_stage1[1] $end
     $var wire 128 E! data [127:0] $end
     $var wire 1 I! valid $end
    $upscope $end
    $scope module vector_stage1[2] $end
     $var wire 128 J! data [127:0] $end
     $var wire 1 N! valid $end
    $upscope $end
    $scope module vector_stage1[3] $end
     $var wire 128 O! data [127:0] $end
     $var wire 1 S! valid $end
    $upscope $end
    $scope module vector_stage2 $end
     $var wire 128 ~ data [127:0] $end
     $var wire 1 /! valid $end
    $upscope $end
    $var wire 1 0! mul_start $end
    $var wire 2 1! state_reg [1:0] $end
    $scope module mul_gen[0] $end
     $scope module mul $end
      $var wire 32 [! LEN [31:0] $end
      $var wire 1 X! clk $end
      $var wire 1 # rst $end
      $var wire 64 2 multiplicand [63:0] $end
      $var wire 64 2! multiplier [63:0] $end
      $var wire 1 0! start $end
      $var wire 128 ; product [127:0] $end
      $var wire 1 ? finish $end
      $var wire 32 Z! PRODUCT_LEN [31:0] $end
      $var wire 64 @ multiplicand_reg [63:0] $end
      $var wire 128 ; product_reg [127:0] $end
      $var wire 32 \! CNT_LEN [31:0] $end
      $var wire 32 ]! CNT_NUM [31:0] $end
      $var wire 2 4! fsm_state_reg [1:0] $end
      $var wire 6 T! work_cnt [5:0] $end
      $var wire 1 ? finish_reg $end
      $var wire 65 B add_result [64:0] $end
     $upscope $end
    $upscope $end
    $scope module mul_gen[1] $end
     $scope module mul $end
      $var wire 32 [! LEN [31:0] $end
      $var wire 1 X! clk $end
      $var wire 1 # rst $end
      $var wire 64 4 multiplicand [63:0] $end
      $var wire 64 5! multiplier [63:0] $end
      $var wire 1 0! start $end
      $var wire 128 E product [127:0] $end
      $var wire 1 I finish $end
      $var wire 32 Z! PRODUCT_LEN [31:0] $end
      $var wire 64 J multiplicand_reg [63:0] $end
      $var wire 128 E product_reg [127:0] $end
      $var wire 32 \! CNT_LEN [31:0] $end
      $var wire 32 ]! CNT_NUM [31:0] $end
      $var wire 2 7! fsm_state_reg [1:0] $end
      $var wire 6 U! work_cnt [5:0] $end
      $var wire 1 I finish_reg $end
      $var wire 65 L add_result [64:0] $end
     $upscope $end
    $upscope $end
    $scope module mul_gen[2] $end
     $scope module mul $end
      $var wire 32 [! LEN [31:0] $end
      $var wire 1 X! clk $end
      $var wire 1 # rst $end
      $var wire 64 6 multiplicand [63:0] $end
      $var wire 64 8! multiplier [63:0] $end
      $var wire 1 0! start $end
      $var wire 128 O product [127:0] $end
      $var wire 1 S finish $end
      $var wire 32 Z! PRODUCT_LEN [31:0] $end
      $var wire 64 T multiplicand_reg [63:0] $end
      $var wire 128 O product_reg [127:0] $end
      $var wire 32 \! CNT_LEN [31:0] $end
      $var wire 32 ]! CNT_NUM [31:0] $end
      $var wire 2 :! fsm_state_reg [1:0] $end
      $var wire 6 V! work_cnt [5:0] $end
      $var wire 1 S finish_reg $end
      $var wire 65 V add_result [64:0] $end
     $upscope $end
    $upscope $end
    $scope module mul_gen[3] $end
     $scope module mul $end
      $var wire 32 [! LEN [31:0] $end
      $var wire 1 X! clk $end
      $var wire 1 # rst $end
      $var wire 64 8 multiplicand [63:0] $end
      $var wire 64 ;! multiplier [63:0] $end
      $var wire 1 0! start $end
      $var wire 128 Y product [127:0] $end
      $var wire 1 ] finish $end
      $var wire 32 Z! PRODUCT_LEN [31:0] $end
      $var wire 64 ^ multiplicand_reg [63:0] $end
      $var wire 128 Y product_reg [127:0] $end
      $var wire 32 \! CNT_LEN [31:0] $end
      $var wire 32 ]! CNT_NUM [31:0] $end
      $var wire 2 =! fsm_state_reg [1:0] $end
      $var wire 6 W! work_cnt [5:0] $end
      $var wire 1 ] finish_reg $end
      $var wire 65 ` add_result [64:0] $end
     $upscope $end
    $upscope $end
   $upscope $end
   $scope module shift $end
    $var wire 1 X! clk $end
    $var wire 1 # rst $end
    $var wire 64 $ in_data [63:0] $end
    $var wire 1 . in_valid $end
    $var wire 1 } in_ready $end
    $scope module data $end
     $var wire 64 %! data[0] [63:0] $end
     $var wire 64 '! data[1] [63:0] $end
     $var wire 64 )! data[2] [63:0] $end
     $var wire 64 +! data[3] [63:0] $end
    $upscope $end
    $var wire 1 -! out_valid $end
    $var wire 1 .! out_ready $end
    $var wire 1 >! state_reg $end
    $var wire 32 ?! i [31:0] $end
   $upscope $end
  $upscope $end
  $scope module judge $end
   $var wire 1 X! clk $end
   $var wire 1 # rst $end
   $var wire 64 $ in_data [63:0] $end
   $scope module kernel $end
    $var wire 64 & data[0] [63:0] $end
    $var wire 64 ( data[1] [63:0] $end
    $var wire 64 * data[2] [63:0] $end
    $var wire 64 , data[3] [63:0] $end
   $upscope $end
   $var wire 1 . in_valid $end
   $var wire 1 } in_ready $end
   $var wire 128 ~ result [127:0] $end
   $var wire 1 $! out_valid $end
   $var wire 1 Y! out_ready $end
   $var wire 1 : error $end
   $var wire 1 c request $end
   $var wire 128 d mid[0] [127:0] $end
   $var wire 128 h mid[1] [127:0] $end
   $var wire 128 l mid[2] [127:0] $end
   $var wire 128 p mid[3] [127:0] $end
   $var wire 128 t sum [127:0] $end
   $var wire 128 x simulate_result [127:0] $end
   $var wire 32 | i [31:0] $end
  $upscope $end
 $upscope $end
$enddefinitions $end


#0
1#
b0000000000000000000000000000000000000000000000000000000000000000 $
b0000000000000000000000000000000000000000000000000000000000000000 &
b0000000000000000000000000000000000000000000000000000000000000000 (
b0000000000000000000000000000000000000000000000000000000000000000 *
b0000000000000000000000000000000000000000000000000000000000000000 ,
0.
b00000000000000000000000000000000 /
b00000000000000000000000000000000 0
b00000000000000000000000000000000 1
b0000000000000000000000000000000000000000000000000000000000000000 2
b0000000000000000000000000000000000000000000000000000000000000000 4
b0000000000000000000000000000000000000000000000000000000000000000 6
b0000000000000000000000000000000000000000000000000000000000000000 8
0:
b00000000000000000000000000000000000000000000000000000000000000000000000000000000000000000000000000000000000000000000000000000000 ;
0?
b0000000000000000000000000000000000000000000000000000000000000000 @
b00000000000000000000000000000000000000000000000000000000000000000 B
b00000000000000000000000000000000000000000000000000000000000000000000000000000000000000000000000000000000000000000000000000000000 E
0I
b0000000000000000000000000000000000000000000000000000000000000000 J
b00000000000000000000000000000000000000000000000000000000000000000 L
b00000000000000000000000000000000000000000000000000000000000000000000000000000000000000000000000000000000000000000000000000000000 O
0S
b0000000000000000000000000000000000000000000000000000000000000000 T
b00000000000000000000000000000000000000000000000000000000000000000 V
b00000000000000000000000000000000000000000000000000000000000000000000000000000000000000000000000000000000000000000000000000000000 Y
0]
b0000000000000000000000000000000000000000000000000000000000000000 ^
b00000000000000000000000000000000000000000000000000000000000000000 `
0c
b00000000000000000000000000000000000000000000000000000000000000000000000000000000000000000000000000000000000000000000000000000000 d
b00000000000000000000000000000000000000000000000000000000000000000000000000000000000000000000000000000000000000000000000000000000 h
b00000000000000000000000000000000000000000000000000000000000000000000000000000000000000000000000000000000000000000000000000000000 l
b00000000000000000000000000000000000000000000000000000000000000000000000000000000000000000000000000000000000000000000000000000000 p
b00000000000000000000000000000000000000000000000000000000000000000000000000000000000000000000000000000000000000000000000000000000 t
b00000000000000000000000000000000000000000000000000000000000000000000000000000000000000000000000000000000000000000000000000000000 x
b00000000000000000000000000000000 |
0}
b00000000000000000000000000000000000000000000000000000000000000000000000000000000000000000000000000000000000000000000000000000000 ~
0$!
b0000000000000000000000000000000000000000000000000000000000000000 %!
b0000000000000000000000000000000000000000000000000000000000000000 '!
b0000000000000000000000000000000000000000000000000000000000000000 )!
b0000000000000000000000000000000000000000000000000000000000000000 +!
0-!
0.!
0/!
00!
b00 1!
b0000000000000000000000000000000000000000000000000000000000000000 2!
b00 4!
b0000000000000000000000000000000000000000000000000000000000000000 5!
b00 7!
b0000000000000000000000000000000000000000000000000000000000000000 8!
b00 :!
b0000000000000000000000000000000000000000000000000000000000000000 ;!
b00 =!
0>!
b00000000000000000000000000000000 ?!
b00000000000000000000000000000000000000000000000000000000000000000000000000000000000000000000000000000000000000000000000000000000 @!
0D!
b00000000000000000000000000000000000000000000000000000000000000000000000000000000000000000000000000000000000000000000000000000000 E!
0I!
b00000000000000000000000000000000000000000000000000000000000000000000000000000000000000000000000000000000000000000000000000000000 J!
0N!
b00000000000000000000000000000000000000000000000000000000000000000000000000000000000000000000000000000000000000000000000000000000 O!
0S!
b000000 T!
b000000 U!
b000000 V!
b000000 W!
0X!
1Y!
b00000000000000000000000010000000 Z!
b00000000000000000000000001000000 [!
b00000000000000000000000000000110 \!
b00000000000000000000000000111111 ]!
b00000000000000000000000000000100 ^!
#500
1.!
1>!
b111111 T!
b111111 U!
b111111 V!
b111111 W!
1X!
#1000
0X!
#1500
1X!
#2000
0#
0X!
#2500
1X!
#3000
0X!
#3500
1X!
#4000
0X!
#4500
b1111111111011101100111001111000100000000001110110011100111100010 $
b0000101100011110010111011001110011100010001111001011101100111001 &
b0011101111111001011101100111001101110111111100101110110011100111 (
b1110111111100101110110011100111111011111110010111011001110011110 *
b0100000000010111011001110011110010000000001011101100111001111000 ,
1.
b00000000000000000000000000000100 0
b11101100111001111000100000000000 1
b0000101100011110010111011001110011100010001111001011101100111001 2
b0011101111111001011101100111001101110111111100101110110011100111 4
b1110111111100101110110011100111111011111110010111011001110011110 6
b0100000000010111011001110011110010000000001011101100111001111000 8
b0000101100011110010111011001110011100010001111001011101100111001 @
b00000101100011110010111011001110011100010001111001011101100111001 B
b0011101111111001011101100111001101110111111100101110110011100111 J
b00011101111111001011101100111001101110111111100101110110011100111 L
b1110111111100101110110011100111111011111110010111011001110011110 T
b01110111111100101110110011100111111011111110010111011001110011110 V
b0100000000010111011001110011110010000000001011101100111001111000 ^
b00100000000010111011001110011110010000000001011101100111001111000 `
1}
1-!
0>!
1X!
#5000
0X!
#5500
1c
0}
b1111111111011101100111001111000100000000001110110011100111100010 +!
0-!
0.!
10!
b01 1!
b1111111111011101100111001111000100000000001110110011100111100010 ;!
1>!
b00000000000000000000000000000011 ?!
1X!
#6000
0X!
#6500
b00000000000000000000000000000000000000000000000000000000000000001111111111011101100111001111000100000000001110110011100111100010 Y
0c
b01000000000011101100101101010011111110111110100100101010000001011000110100010000101001011011010100101010111100101111110111110000 p
b01000000000011101100101101010011111110111110100100101010000001011000110100010000101001011011010100101010111100101111110111110000 t
b00000000000000000000000000000100 |
00!
b01 4!
b01 7!
b01 :!
b01 =!
b00000000000000000000000000000000000000000000000000000000000000001111111111011101100111001111000100000000001110110011100111100010 O!
1X!
#7000
0X!
#7500
b00000000000000000000000000000000000000000000000000000000000000000111111111101110110011100111100010000000000111011001110011110001 Y
b00000000000000000000000000000000000000000000000000000000000000000111111111101110110011100111100010000000000111011001110011110001 O!
b111110 T!
b111110 U!
b111110 V!
b111110 W!
1X!
#8000
0X!
#8500
b00100000000010111011001110011110010000000001011101100111001111000011111111110111011001110011110001000000000011101100111001111000 Y
b00110000000100011000110101101101011000000010001100011010110110100 `
b00100000000010111011001110011110010000000001011101100111001111000011111111110111011001110011110001000000000011101100111001111000 O!
b111101 T!
b111101 U!
b111101 V!
b111101 W!
1X!
#9000
0X!
#9500
b00010000000001011101100111001111001000000000101110110011100111100001111111111011101100111001111000100000000001110110011100111100 Y
b00101000000011101010000010000101110100000001110101000001000010110 `
b00010000000001011101100111001111001000000000101110110011100111100001111111111011101100111001111000100000000001110110011100111100 O!
b111100 T!
b111100 U!
b111100 V!
b111100 W!
1X!
#10000
0X!
#10500
b00001000000000101110110011100111100100000000010111011001110011110000111111111101110110011100111100010000000000111011001110011110 Y
b00100100000011010010101000010010000010000001101001010100001000111 `
b00001000000000101110110011100111100100000000010111011001110011110000111111111101110110011100111100010000000000111011001110011110 O!
b111011 T!
b111011 U!
b111011 V!
b111011 W!
1X!
#11000
0X!
#11500
b00000100000000010111011001110011110010000000001011101100111001111000011111111110111011001110011110001000000000011101100111001111 Y
b00100010000011000110111011011000001001000001100011011101101011111 `
b00000100000000010111011001110011110010000000001011101100111001111000011111111110111011001110011110001000000000011101100111001111 O!
b111010 T!
b111010 U!
b111010 V!
b111010 W!
1X!
#12000
0X!
#12500
b00100010000011000110111011011000001001000001100011011101101011111100001111111111011101100111001111000100000000001110110011100111 Y
b00110001000100011110101100001010010100100010001111010110000100111 `
b00100010000011000110111011011000001001000001100011011101101011111100001111111111011101100111001111000100000000001110110011100111 O!
b111001 T!
b111001 U!
b111001 V!
b111001 W!
1X!
#13000
0X!
#13500
b00110001000100011110101100001010010100100010001111010110000100111110000111111111101110110011100111100010000000000111011001110011 Y
b00111000100101001010100100100011011010010010100101010010010001011 `
b00110001000100011110101100001010010100100010001111010110000100111110000111111111101110110011100111100010000000000111011001110011 O!
b111000 T!
b111000 U!
b111000 V!
b111000 W!
1X!
#14000
0X!
#14500
b00111000100101001010100100100011011010010010100101010010010001011111000011111111110111011001110011110001000000000011101100111001 Y
b00111100010101100000100000101111111101001010110000010000010111101 `
b00111000100101001010100100100011011010010010100101010010010001011111000011111111110111011001110011110001000000000011101100111001 O!
b110111 T!
b110111 U!
b110111 V!
b110111 W!
1X!
#15000
0X!
#15500
b00111100010101100000100000101111111101001010110000010000010111101111100001111111111011101100111001111000100000000001110110011100 Y
b00111110001101101011011110110110001110100110110101101111011010110 `
b00111100010101100000100000101111111101001010110000010000010111101111100001111111111011101100111001111000100000000001110110011100 O!
b110110 T!
b110110 U!
b110110 V!
b110110 W!
1X!
#16000
0X!
#16500
b00011110001010110000010000010111111110100101011000001000001011110111110000111111111101110110011100111100010000000000111011001110 Y
b00101111001000010011010110101010001111010100001001101011010100111 `
b00011110001010110000010000010111111110100101011000001000001011110111110000111111111101110110011100111100010000000000111011001110 O!
b110101 T!
b110101 U!
b110101 V!
b110101 W!
1X!
#17000
0X!
#17500
b00001111000101011000001000001011111111010010101100000100000101111011111000011111111110111011001110011110001000000000011101100111 Y
b00100111100101100111010010100100001111101010110011101001010001111 `
b00001111000101011000001000001011111111010010101100000100000101111011111000011111111110111011001110011110001000000000011101100111 O!
b110100 T!
b110100 U!
b110100 V!
b110100 W!
1X!
#18000
0X!
#18500
b00100111100101100111010010100100001111101010110011101001010001111101111100001111111111011101100111001111000100000000001110110011 Y
b00110011110101101110110111110000010111110110110111011011110111111 `
b00100111100101100111010010100100001111101010110011101001010001111101111100001111111111011101100111001111000100000000001110110011 O!
b110011 T!
b110011 U!
b110011 V!
b110011 W!
1X!
#19000
0X!
#19500
b00110011110101101110110111110000010111110110110111011011110111111110111110000111111111101110110011100111100010000000000111011001 Y
b00111001111101110010101010010110011011111100111001010101001010111 `
b00110011110101101110110111110000010111110110110111011011110111111110111110000111111111101110110011100111100010000000000111011001 O!
b110010 T!
b110010 U!
b110010 V!
b110010 W!
1X!
#20000
0X!
#20500
b00111001111101110010101010010110011011111100111001010101001010111111011111000011111111110111011001110011110001000000000011101100 Y
b00111101000001110100100011101001011101111111111010010001110100011 `
b00111001111101110010101010010110011011111100111001010101001010111111011111000011111111110111011001110011110001000000000011101100 O!
b110001 T!
b110001 U!
b110001 V!
b110001 W!
1X!
#21000
0X!
#21500
b00011100111110111001010101001011001101111110011100101010100101011111101111100001111111111011101100111001111000100000000001110110 Y
b00101110100010010111111001000011110111000000101011111100100001101 `
b00011100111110111001010101001011001101111110011100101010100101011111101111100001111111111011101100111001111000100000000001110110 O!
b110000 T!
b110000 U!
b110000 V!
b110000 W!
1X!
#22000
0X!
#22500
b00001110011111011100101010100101100110111111001110010101010010101111110111110000111111111101110110011100111100010000000000111011 Y
b00100111010010101001100011110001000011100001000100110001111000010 `
b00001110011111011100101010100101100110111111001110010101010010101111110111110000111111111101110110011100111100010000000000111011 O!
b101111 T!
b101111 U!
b101111 V!
b101111 W!
1X!
#23000
0X!
#23500
b00100111010010101001100011110001000011100001000100110001111000010111111011111000011111111110111011001110011110001000000000011101 Y
b00110011101100010000000000010110110001110010000000000000001011001 `
b00100111010010101001100011110001000011100001000100110001111000010111111011111000011111111110111011001110011110001000000000011101 O!
b101110 T!
b101110 U!
b101110 V!
b101110 W!
1X!
#24000
0X!
#24500
b00110011101100010000000000010110110001110010000000000000001011001011111101111100001111111111011101100111001111000100000000001110 Y
b00111001111001000011001110101001101000111010011101100111010100100 `
b00110011101100010000000000010110110001110010000000000000001011001011111101111100001111111111011101100111001111000100000000001110 O!
b101101 T!
b101101 U!
b101101 V!
b101101 W!
1X!
#25000
0X!
#25500
b00011001110110001000000000001011011000111001000000000000000101100101111110111110000111111111101110110011100111100010000000000111 Y
b00101100111101111111001110100011111100011101111101100111010001110 `
b00011001110110001000000000001011011000111001000000000000000101100101111110111110000111111111101110110011100111100010000000000111 O!
b101100 T!
b101100 U!
b101100 V!
b101100 W!
1X!
#26000
0X!
#26500
b00101100111101111111001110100011111100011101111101100111010001110010111111011111000011111111110111011001110011110001000000000011 Y
b00110110100001111010110101110000001110010000011100011010110111111 `
b00101100111101111111001110100011111100011101111101100111010001110010111111011111000011111111110111011001110011110001000000000011 O!
b101011 T!
b101011 U!
b101011 V!
b101011 W!
1X!
#27000
0X!
#27500
b00110110100001111010110101110000001110010000011100011010110111111001011111101111100001111111111011101100111001111000100000000001 Y
b00111011010011111000101001010110010111001001101011110100101010111 `
b00110110100001111010110101110000001110010000011100011010110111111001011111101111100001111111111011101100111001111000100000000001 O!
b101010 T!
b101010 U!
b101010 V!
b101010 W!
1X!
#28000
0X!
#28500
b00111011010011111000101001010110010111001001101011110100101010111100101111110111110000111111111101110110011100111100010000000000 Y
b00111101101100110111100011001001011011100110010011100001100100011 `
b00111011010011111000101001010110010111001001101011110100101010111100101111110111110000111111111101110110011100111100010000000000 O!
b101001 T!
b101001 U!
b101001 V!
b101001 W!
1X!
#29000
0X!
#29500
b00011101101001111100010100101011001011100100110101111010010101011110010111111011111000011111111110111011001110011110001000000000 Y
b00101110110111111001011000110011110101110011111000100100011001101 `
b00011101101001111100010100101011001011100100110101111010010101011110010111111011111000011111111110111011001110011110001000000000 O!
b101000 T!
b101000 U!
b101000 V!
b101000 W!
1X!
#30000
0X!
#30500
b00001110110100111110001010010101100101110010011010111101001010101111001011111101111100001111111111011101100111001111000100000000 Y
b00100111011101011010010011101001000010111010101011000101110100010 `
b00001110110100111110001010010101100101110010011010111101001010101111001011111101111100001111111111011101100111001111000100000000 O!
b100111 T!
b100111 U!
b100111 V!
b100111 W!
1X!
#31000
0X!
#31500
b00000111011010011111000101001010110010111001001101011110100101010111100101111110111110000111111111101110110011100111100010000000 Y
b00100011110000001010110001000011101001011110000100010110100001101 `
b00000111011010011111000101001010110010111001001101011110100101010111100101111110111110000111111111101110110011100111100010000000 O!
b100110 T!
b100110 U!
b100110 V!
b100110 W!
1X!
#32000
0X!
#32500
b00000011101101001111100010100101011001011100100110101111010010101011110010111111011111000011111111110111011001110011110001000000 Y
b00100001111001100010111111110000111100101111110000111110111000010 `
b00000011101101001111100010100101011001011100100110101111010010101011110010111111011111000011111111110111011001110011110001000000 O!
b100101 T!
b100101 U!
b100101 V!
b100101 W!
1X!
#33000
0X!
#33500
b00000001110110100111110001010010101100101110010011010111101001010101111001011111101111100001111111111011101100111001111000100000 Y
b00100000111110001111000111000111100110011000100111010011000011101 `
b00000001110110100111110001010010101100101110010011010111101001010101111001011111101111100001111111111011101100111001111000100000 O!
b100100 T!
b100100 U!
b100100 V!
b100100 W!
1X!
#34000
0X!
#34500
b00000000111011010011111000101001010110010111001001101011110100101010111100101111110111110000111111111101110110011100111100010000 Y
b00100000100000100101001010110010111011001101000010011101001001010 `
b00000000111011010011111000101001010110010111001001101011110100101010111100101111110111110000111111111101110110011100111100010000 O!
b100011 T!
b100011 U!
b100011 V!
b100011 W!
1X!
#35000
0X!
#35500
b00000000011101101001111100010100101011001011100100110101111010010101011110010111111011111000011111111110111011001110011110001000 Y
b00100000010001110000001100101000100101100111010000000010001100001 `
b00000000011101101001111100010100101011001011100100110101111010010101011110010111111011111000011111111110111011001110011110001000 O!
b100010 T!
b100010 U!
b100010 V!
b100010 W!
1X!
#36000
0X!
#36500
b00000000001110110100111110001010010101100101110010011010111101001010101111001011111101111100001111111111011101100111001111000100 Y
b00100000001010010101101101100011011010110100010110110100101101100 `
b00000000001110110100111110001010010101100101110010011010111101001010101111001011111101111100001111111111011101100111001111000100 O!
b100001 T!
b100001 U!
b100001 V!
b100001 W!
1X!
#37000
0X!
#37500
b00000000000111011010011111000101001010110010111001001101011110100101010111100101111110111110000111111111101110110011100111100010 Y
b00100000000110101000011110000000110101011010111010001101111110010 `
b00000000000111011010011111000101001010110010111001001101011110100101010111100101111110111110000111111111101110110011100111100010 O!
b100000 T!
b100000 U!
b100000 V!
b100000 W!
1X!
#38000
0X!
#38500
b00000000000011101101001111100010100101011001011100100110101111010010101011110010111111011111000011111111110111011001110011110001 Y
b00100000000100110001110110001111100010101110001011111010100110101 `
b00000000000011101101001111100010100101011001011100100110101111010010101011110010111111011111000011111111110111011001110011110001 O!
b011111 T!
b011111 U!
b011111 V!
b011111 W!
1X!
#39000
0X!
#39500
b00100000000100110001110110001111100010101110001011111010100110101001010101111001011111101111100001111111111011101100111001111000 Y
b00110000000101010100001001100110000001011000100011100100100010010 `
b00100000000100110001110110001111100010101110001011111010100110101001010101111001011111101111100001111111111011101100111001111000 O!
b011110 T!
b011110 U!
b011110 V!
b011110 W!
1X!
#40000
0X!
#40500
b00010000000010011000111011000111110001010111000101111101010011010100101010111100101111110111110000111111111101110110011100111100 Y
b00101000000100000111101100000010001000101101000000100101111000101 `
b00010000000010011000111011000111110001010111000101111101010011010100101010111100101111110111110000111111111101110110011100111100 O!
b011101 T!
b011101 U!
b011101 V!
b011101 W!
1X!
#41000
0X!
#41500
b00001000000001001100011101100011111000101011100010111110101001101010010101011110010111111011111000011111111110111011001110011110 Y
b00100100000011100001011101010000001100010111001111000110100011110 `
b00001000000001001100011101100011111000101011100010111110101001101010010101011110010111111011111000011111111110111011001110011110 O!
b011100 T!
b011100 U!
b011100 V!
b011100 W!
1X!
#42000
0X!
#42500
b00000100000000100110001110110001111100010101110001011111010100110101001010101111001011111101111100001111111111011101100111001111 Y
b00100010000011001110010101110111001110001100010110010110111001011 `
b00000100000000100110001110110001111100010101110001011111010100110101001010101111001011111101111100001111111111011101100111001111 O!
b011011 T!
b011011 U!
b011011 V!
b011011 W!
1X!
#43000
0X!
#43500
b00100010000011001110010101110111001110001100010110010110111001011010100101010111100101111110111110000111111111101110110011100111 Y
b00110001000100100010011001011001110111000111101000110010101011101 `
b00100010000011001110010101110111001110001100010110010110111001011010100101010111100101111110111110000111111111101110110011100111 O!
b011010 T!
b011010 U!
b011010 V!
b011010 W!
1X!
#44000
0X!
#44500
b00110001000100100010011001011001110111000111101000110010101011101101010010101011110010111111011111000011111111110111011001110011 Y
b00111000100101001100011011001011001011100101010010000000100100110 `
b00110001000100100010011001011001110111000111101000110010101011101101010010101011110010111111011111000011111111110111011001110011 O!
b011001 T!
b011001 U!
b011001 V!
b011001 W!
1X!
#45000
0X!
#45500
b00111000100101001100011011001011001011100101010010000000100100110110101001010101111001011111101111100001111111111011101100111001 Y
b00111100010101100001011100000011110101110100000110100111100001011 `
b00111000100101001100011011001011001011100101010010000000100100110110101001010101111001011111101111100001111111111011101100111001 O!
b011000 T!
b011000 U!
b011000 V!
b011000 W!
1X!
#46000
0X!
#46500
b00111100010101100001011100000011110101110100000110100111100001011011010100101010111100101111110111110000111111111101110110011100 Y
b00111110001101101011111100100000001010111011100000111010111111101 `
b00111100010101100001011100000011110101110100000110100111100001011011010100101010111100101111110111110000111111111101110110011100 O!
b010111 T!
b010111 U!
b010111 V!
b010111 W!
1X!
#47000
0X!
#47500
b00011110001010110000101110000001111010111010000011010011110000101101101010010101011110010111111011111000011111111110111011001110 Y
b00101111001000010011100101011111001101011110011111010001000111010 `
b00011110001010110000101110000001111010111010000011010011110000101101101010010101011110010111111011111000011111111110111011001110 O!
b010110 T!
b010110 U!
b010110 V!
b010110 W!
1X!
#48000
0X!
#48500
b00001111000101011000010111000000111101011101000001101001111000010110110101001010101111001011111101111100001111111111011101100111 Y
b00100111100101100111011001111110101110101111111110011100001011001 `
b00001111000101011000010111000000111101011101000001101001111000010110110101001010101111001011111101111100001111111111011101100111 O!
b010101 T!
b010101 U!
b010101 V!
b010101 W!
1X!
#49000
0X!
#49500
b00100111100101100111011001111110101110101111111110011100001011001011011010100101010111100101111110111110000111111111101110110011 Y
b00110011110101101110111011011101100111011001011100110101010100100 `
b00100111100101100111011001111110101110101111111110011100001011001011011010100101010111100101111110111110000111111111101110110011 O!
b010100 T!
b010100 U!
b010100 V!
b010100 W!
1X!
#50000
0X!
#50500
b00110011110101101110111011011101100111011001011100110101010100100101101101010010101011110010111111011111000011111111110111011001 Y
b00111001111101110010101100001101000011101110001100000001111001010 `
b00110011110101101110111011011101100111011001011100110101010100100101101101010010101011110010111111011111000011111111110111011001 O!
b010011 T!
b010011 U!
b010011 V!
b010011 W!
1X!
#51000
0X!
#51500
b00111001111101110010101100001101000011101110001100000001111001010010110110101001010101111001011111101111100001111111111011101100 Y
b00111101000001110100100100100100110001111000100011101000001011101 `
b00111001111101110010101100001101000011101110001100000001111001010010110110101001010101111001011111101111100001111111111011101100 O!
b010010 T!
b010010 U!
b010010 V!
b010010 W!
1X!
#52000
0X!
#52500
b00011100111110111001010110000110100001110111000110000000111100101001011011010100101010111100101111110111110000111111111101110110 Y
b00101110100010010111111001100001100000111101000000100111101101010 `
b00011100111110111001010110000110100001110111000110000000111100101001011011010100101010111100101111110111110000111111111101110110 O!
b010001 T!
b010001 U!
b010001 V!
b010001 W!
1X!
#53000
0X!
#53500
b00001110011111011100101011000011010000111011100011000000011110010100101101101010010101011110010111111011111000011111111110111011 Y
b00100111010010101001100011111111111000011111001111000111011110001 `
b00001110011111011100101011000011010000111011100011000000011110010100101101101010010101011110010111111011111000011111111110111011 O!
b010000 T!
b010000 U!
b010000 V!
b010000 W!
1X!
#54000
0X!
#54500
b00100111010010101001100011111111111000011111001111000111011110001010010110110101001010101111001011111101111100001111111111011101 Y
b00110011101100010000000000011110001100010001000101001010111110000 `
b00100111010010101001100011111111111000011111001111000111011110001010010110110101001010101111001011111101111100001111111111011101 O!
b001111 T!
b001111 U!
b001111 V!
b001111 W!
1X!
#55000
0X!
#55500
b00110011101100010000000000011110001100010001000101001010111110000101001011011010100101010111100101111110111110000111111111101110 Y
b00111001111001000011001110101101010110001010000000001100101110000 `
b00110011101100010000000000011110001100010001000101001010111110000101001011011010100101010111100101111110111110000111111111101110 O!
b001110 T!
b001110 U!
b001110 V!
b001110 W!
1X!
#56000
0X!
#56500
b00011001110110001000000000001111000110001000100010100101011111000010100101101101010010101011110010111111011111000011111111110111 Y
b00101100111101111111001110100101110011000101101110111001111110100 `
b00011001110110001000000000001111000110001000100010100101011111000010100101101101010010101011110010111111011111000011111111110111 O!
b001101 T!
b001101 U!
b001101 V!
b001101 W!
1X!
#57000
0X!
#57500
b00101100111101111111001110100101110011000101101110111001111110100001010010110110101001010101111001011111101111100001111111111011 Y
b00110110100001111010110101110001001001100100010101000100001110010 `
b00101100111101111111001110100101110011000101101110111001111110100001010010110110101001010101111001011111101111100001111111111011 O!
b001100 T!
b001100 U!
b001100 V!
b001100 W!
1X!
#58000
0X!
